id	txt	pdf_fr	pdf_raw	title_eng	translator_sign	translator_name	publication_title	first_line	genre	prose_verse	source_title	place	year	volumes	section	pages	notes	source_type
1			да	The Corsair	б.п.	[Аноним]	Морский разбойник. В трех песнях. Сочинение Лорда Бирона (The Corsair, A Tale, и проч., и проч.). Лондон. 1814. Извлечение		Поэмы	проза	Российский Музеум		1815	№ 1		С. 37-42		периодика
2			да	From the Portuguese	б.п., с пометой: Варшава	Вяземский П. А. 	Португальская песня	Когда меня прижав к груди рукою гибкой	Стихи	стихи	Сын отечества		1820	Ч. 60. № 12		С. 268		периодика
					К. П. Б.		Прощание	Прости - хотя бы навеки - прости	Стихи		Соревнователь		1820	Ч. 12. Кн. 11.		С. 197-200		периодика
					И. Козлов	Козлов И. И.	Португальская песня	В кипеньи нежности сердечной	Стихи	стихи	Сын отечества		1820	№ 17				периодика
3			да	The Siege of Corinth	К.	Каченовский М. Т.	Осада Коринфа. Пер. с фр. [в прозе] К[ачановского]		Поэмы	проза	Вестник Европы		1820	"Ч. 113. № 20; Ч. 114. № 21"		"С. 241-262; С. 3-23"		периодика
5			да	Oscar of Alva	NN	[Аноним]	Оскар Альвский. Повесть. Пер. с фр. NN [в прозе]		Поэмы	проза	Вестник Европы 		1821	Ч. 121. № 21		С. 16-31		периодика
6			да	The Prisoner of Chillon	Н. Ф.	[Аноним]	Отрывок из поэмы: Шиллонский узник Лорда Байрона [в прозе, с фр.]		Поэмы	проза	Соревнователь		1821	Ч. 15. Кн. 3		С. 299-310		периодика
7			да	Mazeppa	К.	Каченовский М. Т.	Мазепа. Пер. с фр. [в прозе]  К[ачановского]		Поэмы	проза	Вестник Европы		1821	Ч. 116. № 1		С. 3-32		периодика
8			да	The Death of Calmar and Orla 	б.п.	Каченовский М. Т.	Калмар и Орла. Пер. с фр.(Из сочинения Лорда Байрона) (подражание Оссиану) 		Поэмы	проза	Вестник Европы		1821	Ч. 117. № 5		С. 3-12		периодика
9			да	The Giaour	б.п.	Каченовский М. Т.	Джяур. Отрывки из одной Турецкой повести [в прозе] 		Поэмы	проза	Вестник Европы		1821	Ч. 119. № 15, 16, 17		"С. 165-179; С. 249-269; С. 3-20"		периодика
10			да	The Bride of Abydos	б.п.	Каченовский М. Т.	Абидосская невеста. Турецкая повесть [в прозе] 		Поэмы	проза	Вестник Европы		1821	Ч. 120. № 18, 19, 20		"С. 81-105; С. 161-179; С. 241-258"		периодика
11	да		да	Irner	О. Сомов	Сомов О. М. 	К Мирзе: Отрывок из поэмы: Ирнер, сочинение Лорда Бейрона. Пер. О. Сомова	Надежда, дщерь небес, вчера одно мгновенье	Поэмы	стихи	Благонамеренный		1821	Ч. 15. № 16		С. 211-212		периодика
14			да	Parisina	Николай Бестужев	Бестужев Н. А.	Паризина, историческое происшествие (Из Лорда Байрона)		Поэмы	проза	Соревнователь		1822	Ч. 17. Кн. 3		С. 290-310		периодика
15			да	Darkness	Фед. - Глин. - 	Глинка Ф. Н.	Тьма (Из Байрона) [в прозе]		Стихи	проза	Соревнователь		1822	Ч. 17. Кн. 2		С. 159-164		периодика
16	да		да	The Harp the Monarch Minstrel Swept	Н. Г-ча	Гнедич Н. И.	Арфа Давида (Подражание Байрону) 	Разорваны струны на арфе забвенной	"Стихи; Еврейские мелодии"		Вестник Европы		1822	Ч. 112. № 3		С. 176-177		периодика
				Stanzas for Music	Ж.	Жуковский В. А.	Песня	Отнимает наши радости	Стихи	стихи	Сын отечества		1822	Ч. 77. № 15		С. 35-36		периодика
17	да		да	Lines Written in an Album at Malta	И. Козлов	Козлов И. И.	К С-е	Когда над сонною рекой	Стихи	стихи	Новости литературы		1822	Кн. 1. № 12		С. 191-192		периодика
18			да	Darkness	О. Сомов	Сомов О. М. 	Мрак. Пер. с фр. О. Сомова [в прозе] 		Стихи	проза	Благонамеренный		1822	Ч. 17. № 3		С. 122-126		периодика
19	да		да		М-л Яковлев	Яковлев М. А. (?)	К Лине (Подражание Лорду Байрону)	В часы любви, в часы забав	Стихи	стихи	Благонамеренный		1822	Ч. 17. № 9		С. 353		периодика
20	да		да	Lines Written in an Album at Malta	Князь Вяземский	Вяземский П. А. 	Стихи в альбом, из Байрона	Как надпись хладная на камне гробовом	Стихи	стихи	Дамский журнал		1823	Ч. 1. № 1		С. 29		периодика
21	да		да	The Harp the Monarch Minstrel Swept	Н. Г-ч	Гнедич Н. И.	Арфа Давида 	Разорваны струны на арфе забвенной	"Стихи; Еврейские мелодии"		Новые Аониды на 1823		1823			С. 3-4		периодика
22	да		да	The Prisoner of Chillon	"б.п.; в оглавлении: Жуковский"	Жуковский В. А.	Младший брат Бонивара: Из Шильонского узника	Из нас троих я старший был!	Поэмы	стихи	Новые Аониды на 1823		1823			С. 110-111		периодика
23	да		да	The Prisoner of Chillon	"б.п.; в оглавлении: Жуковский"	Жуковский В. А.	Смерть младшего брата: Из Ш. узника	Но он - наш милый, лучший цвет	Поэмы	стихи	Новые Аониды на 1823		1823			С. 113-118		периодика
24	да		да	The Prisoner of Chillon	"б.п.; в оглавлении: Жуковский"	Жуковский В. А.	Воздушный гость  Бонивара: Из Ш.узника	Вдруг луч незапный посетил	Поэмы	стихи	Новые Аониды на 1823		1823			С. 125-127		периодика
25	да		да	The Prisoner of Chillon	"б.п.; в оглавлении: Жуковский"	Жуковский В. А.	Взгляд узника на небо: Из Ш. узника	"Мир стал чужой мне; жизнь пуста!"	Поэмы	стихи	Новые Аониды на 1823		1823			С. 134-136		периодика
26	да		да	Lines Written in an Album at Malta	И. Козлов	Козлов И. И.	В альбом ***	Когда над сонною рекой	Стихи	стихи	Новости литературы		1823	Кн. 3. № 12		С. 188-189		периодика
27	да		да	Sun of the Sleepless	И. Козлов	Козлов И. И.	К звезде, в бессонную ночь, из Байрона	Звезда, приветный свет тоски моей!	"Стихи; Еврейские мелодии"	стихи	Новости литературы		1823	Кн. 3. № 12		С. 188		периодика
28	да		да	The Bride of Abydos 	И. Козлов	Козлов И. И.	Леандрова ночь (С Английского)	Вздымался Геллеспонт грозою	Поэмы	стихи	Новости литературы		1823	Кн. 4. № 24		С. 175-176		периодика
29	да		да	Fare Thee Well	Иван Козлов	Козлов И. И.	Прости. Элегия Лорда Байрона на разлучение супругов.  Пер.  англ.	Прости! И если так судьбой	Стихи	стихи	Сын отечества		1823	Ч. 85. № 18		С. 182-184		периодика
30	да		да	Lines Written in an Album at Malta	Г. Лузанов	Лузанов Г. И.	В альбом	Как путник меж гробов невольно взор склоняет	Стихи	стихи	Благонамеренный		1823	Ч. 23. № 17		С. 361		периодика
				The Death of Calmar and Orla 	Загорский	Загорский М. П.	Колмар и Орла		Поэмы	стихи	Соревнователь		1823	Ч. 24. № 10		С. 40-52		периодика
31			да	Fare Thee Well	Е..на М……ва	[Аноним]	Прости. Элегия из Байрона [в прозе]		Стихи	проза	Дамский журнал		1824	Ч. 7. № 18		С. 202-205	отзыв: К переводчице Байроновой элегии: ДЖ. 1824. Ч. 8. № 20. С. 57	периодика
32	да		да	Oh, Weep for Those	С. Б.к.р.в.чь	Баккаревич С. 	Еврейские стихотворения из Лорда Бейрона. Песнь пленных иудеев	Оплачьте забытых в стране отдаленной	Стихи, Еврейские мелодии	стихи	Русский вестник		1824	Кн. 3		С. 57-58		периодика
33	да		да	Saul	С. Б.к.р.в.чь	Баккаревич С. 	Еврейские стихотворения из Лорда Бейрона. Саул	Стон призывный пробудил	Стихи, Еврейские мелодии	стихи	Русский вестник		1824	Кн. 3		С. 56-57		периодика
34	да		да	Oh, Shatched away in Beauty's Bloom	С. Б.к.р.в.чь	Баккаревич С. 	Еврейские стихотворения из Лорда Бейрона. Уже нет ее!	Не пышный памятник сокроет милый прах!	Стихи, Еврейские мелодии	стихи	Русский вестник		1824	Кн. 3		С. 58-59		периодика
35			да	Mazeppa	б.п.	Воейков А. Ф. (?)	Мазепа (Из сочинений Лорда Бейрона) [в прозе] 		Поэмы	проза	Новости литературы		1824	Кн. 10. Ноябрь		С. 9-33		периодика
36			да	The Siege of Corinth	б.п.	Воейков А. Ф. (?)	Осада Коринфа (Из сочинений Лорда Бейрона) [в прозе] 		Поэмы	проза	Новости литератруры		1824	Кн. 9. Сентябрь		С. 97-128	"рец. А. А. Бестужева: СО. 1824. № 51. С. 219-230; есть оттиск в собрании РНБ (собрание И. Ю. Крачковского)"	периодика
37			да	Oscar of Alva	В.	Воейков А. Ф. (?)	Оскар д'Альва. Повесть [в прозе]  (Из сочинений лорда Байрона)		Поэмы	проза	Новости литературы		1824	Кн. 9. Август		С. 76-89		периодика
38	да		да	Lines Written in an Album at Malta	Князь Вяземский	Вяземский П. А. 	Стихи в альбом, из Байрона	Как надпись хладная на камне гробовом 	Стихи	стихи	Новости литературы		1824	Кн. 7. № 3		С. 46		периодика
39	да		да	By the Rivers of Babylon	В. Григорьев	Григорьев В. Н.	Чувства плененного певца	Тоскуя сидел я на бреге потока	"Стихи; Еврейские мелодии"	стихи	Соревнователь		1824	Ч. 25. Кн. 1.		С. 52-53		периодика
40	да		да	The Wild Gazelle	В. Григорьев	Григорьев В. Н.	Жалобы израильтян (Из Байрона)	Веселая серна, не зная цепей	"Стихи; Еврейские мелодии"	стихи	Соревнователь		1824	Ч. 25. Кн. 3		С. 253-254		периодика
41	да		да	The Corsair	О.	Олин В. Н.	Романс Медоры. Из 1-й песни Бейроновой поэмы: Корсар, the Corsair	Сокрыта навсегда любовь в душе моей	Поэмы	стихи	Литературные листки		1824	Ч. 1. № 1		С. 23-24		периодика
42			да	Parisina	Я. 	Яковлев М. А.	Паризина. Историческая повесть ( Из сочинений Лорда Бейрона) [в прозе] 		Поэмы	проза	Новости литературы		1824	Кн. 9. Октябрь		С. 163-180		периодика
43			да		Хр-ъ	[Аноним]	К Тирзе. Элегия Лорда Байрона. С фр. Хр-ъ [в прозе]		Стихи	проза	Благонамеренный		1825	Ч. 30. № 18		С. 164-166		периодика
44			да		Х.	[Аноним]	К Тирзе. Вторая элегия Лорда Бейрона. С фр. Х. [в прозе] 		Стихи	проза	Благонамеренный		1825	Ч. 30. № 21		С. 261-262		периодика
45			да	Fare Thee Well	Х.	[Аноним]	Прости. Элегия лорда Бейрона [в прозе]		Стихи	проза	Благонамеренный		1825	Ч. 30. № 22		С. 273-276		периодика
46			да		Н.	[Аноним]	Еще элегия лорда Бейрона [в прозе]		Стихи	проза	Благонамеренный		1825	Ч. 30. № 23		С. 316-319		периодика
47			да		Н.	[Аноним]	Марии. Из сочинений лорда Бейрона [в прозе] 		Стихи	проза	Благонамеренный		1825	Ч. 30. № 24		С. 364-366		периодика
48			да		Н.	[Аноним]	Стансы. Из сочинений лорда Бейрона [в прозе] 		Стихи	проза	Благонамеренный		1825	Ч. 30. № 25-26		С. 378-381		периодика
49			да	Lines Written in an Album at Malta	А. Б.стр.м	Бистром А.	В альбом (Подражание Байрону)	Как имя скрытого под гробовой доской	Стихи 	стихи	Благонамеренный		1825	Ч. 31. № 27-28		С. 37		периодика
50			да	Lines Written in an Album at Malta	А. Бистром	Бистром А.	В альбом Ф. А. Б-вой (Подражание Лорду Бейрону)	Как имя на доске холодной, гробовой	Стихи	стихи	Московский телеграф 		1825	Ч. 4. № 15. Отд. 2		С. 233		периодика
51			да	Don Juan	В.	Вяземский П. А. 	"Нью-Стидское аббатство [статья, содержащая отрывок из ""Дон-Жуана""] [в прозе]"	Они отправились в Нораман-Аббатстсво	Поэмы	проза	Московский телеграф		1825	Ч. 5. № 20. Отд. 2		С. 343-354		периодика
52			да	Sun of the Sleepless	Д. Гл.	Глебов Д. П.	К луне, подражание Байрону	Тебя, задумчиво светило	"Стихи; Еврейские мелодии"		Новости литературы		1825	Кн. 14. Октябрь		С. 64		периодика
53	да		да	Sun of the Sleepless	Дмитрий Глебов	Глебов Д. П.	К луне, подражание Байрону	Тебя, задумчиво светило	"Стихи; Еврейские мелодии"		Сын отечества		1825	Ч. 100. № 7		С. 301		периодика
54	да		да	The Bride of Abydos	И. Козлов	Козлов И. И.	Отрывки из поэмы Байрона: Абидоская невеста (Песнь первая). Х-XI	Задумчиво сидел Селим	Поэмы	стихи	Соревнователь		1825	Ч. 29. № 3.		С. 290-294		периодика
55	да		да		Иван Козлов	Козлов И. И.	Стихи, написанные лордом Байроном в альбом одной молодой итальянской графине, за несколько недель до отъезда своего в Миссолунги	Когда и мрак, и сон в полях	Стихи	стихи	Новости литературы		1825	Кн. 11. Март		С. 150-151		периодика
56	да		да	Child Harold's Pilgrimage	И. Козлов	Козлов И. И.	Добрая ночь	Прости, прости, мой край родной!	Поэмы	стихи	Северные цветы на 1825		1825			С. 269-273		периодика
57	да		да	The Bride of Abydos	И. Козлов	Козлов И. И.	Абидосская невеста (Отрывок из песни второй)	Над Геллеспонтом ветр шумит	Поэмы	стихи	Московский телеграф		1825	Ч. 5. № 19. Отд. 2		С. 250-252		периодика
58	да		да	Oscar of Alva	Петр Кудряшев	Кудряшев П. М.	Оскар д'Альва. Повесть	Светило ночное лучи разливает	Поэмы	стихи	Благонамеренный		1825	Ч. 30. № 18		С. 137-152		периодика
59			да	I Saw Thee Weep	Маркевич	Маркевич Н. А.	Мелодия, Из сочинений Лорда Бейрона	Недавно видел я, как улыбалась ты	"Стихи; Еврейские мелодии"	стихи	Новости литературы		1825	Кн. 11. Январь		С. 36		периодика
60			да	When Coldness Wraps This Suffering Clay 	Маркевич	Маркевич Н. А.	Мелодия. Из Лорда Бейрона. 	Когда хлад смерти прекратит	"Стихи; Еврейские мелодии"	стихи	Новости литературы		1825	Кн. 12. Апрель		С. 55-56		периодика
61			да	She Walks in Beauty	Маркевич	Маркевич Н. А.	Мелодия II (Из Лорда Бейрона)	Она идет, идет,  -  блистая красотой	"Стихи; Еврейские мелодии"	стихи	Новости литературы		1825	Кн. 12. Май		С. 140		периодика
62	да		да	Parisina	Н. Маркевич	Маркевич Н. А.	"Два отрывка из ""Паризины"", поэмы Лорда Бейрона "	Вот час, в который угасает	Поэмы	стихи	Новости литературы		1825	Кн. 13. Сентябрь		С. 176		периодика
63	да		да	Parisina	Н. Маркевич	Маркевич Н. А.	"Два отрывка из ""Паризины"", поэмы Лорда Бейрона "	Но не паденье водопада	Поэмы	стихи	Новости литературы		1825	Кн. 13. Сентябрь		С. 176-177		периодика
64	да		да	Parisina	Н. Маркевич	Маркевич Н. А.	"Два отрывка из ""Паризины"", поэмы Лорда Бейрона "	И Паризину он объемлет	Поэмы	стихи	Новости литературы		1825	Кн. 14. Октябрь		С. 71-72		периодика
65	да		да	Parisina	Н. Маркевич	Маркевич Н. А.	"Два отрывка из ""Паризины"", поэмы Лорда Бейрона "	Возле него, как он, немая	Поэмы	стихи	Новости литературы		1825	Кн. 14. Октябрь		С. 72-73		периодика
66			да	The Lament of Tasso	Я.	Яковлев М. А.	Сетование Тасса (Из Лорда Байрона) [в прозе] 		Поэмы	проза	Новости литературы		1825	Кн. 11. Февраль		С. 73-81		периодика
67			да	Darkness	Я.	Яковлев М. А. (?)	Тьма [в прозе]		Стихи	проза	Новости литературы		1825	Кн. 12. Июнь		С. 172-175		периодика
69			да	The Corsair 	Я.	Яковлев М. А. (?)	Корсар. Песнь вторая [в прозе]		Поэмы	проза	Новости литературы		1825	Кн. 14. Ноябрь		С. 89-111		периодика
68			да	The Corsair 	Я.	Яковлев М. А. (?)	Корсар. Песнь первая [в прозе]		Поэмы	проза	Новости литературы		1825	Кн. 14. Октябрь		С. 42-63		периодика
71	да		да	Oscar of Alva	Дм. Гл. 	Глебов Д. П.	Оскар Альвский	На свод лазоревых небес	Поэмы	стихи	Новости литературы		1826	Кн. 17. Ноябрь - декабрь		С. 216-224		периодика
72	да		да	Sun of the Sleepless	Иван Козлов	Козлов И. И.	Еврейская мелодия	Бессонного солнце, в тумане луна!	"Стихи; Еврейские мелодии"	стихи	Северные цветы на 1826		1826	Отд. 2		С. 115		периодика
73	да		да	Child Harold's Pilgrimage	Ник. Маркевич	Маркевич Н. А.	Веллино	Я видел Веллино: с утесистых высот	Поэмы	стихи	Московский телеграф		1826	Ч. 8. № 7. Отд. 2		С. 82-84		периодика
				Child Harold's Pilgrimage		Маркевич Н. А.	Инезе	Не улыбайся предо мною	Поэмы	стихи	Московский телеграф		1826	Ч. 11. № 17.	Отд. 2	С. 5-6		периодика
74			да	Oscar of Alva	А. Полежаев	Полежаев А. И. 	Оскар Альвский (Из Байрона)		Поэмы	стихи	Сочинения и прозе и стихах. Труды Общества любителей российской словесности при Московском университете		1826	Ч. 6		С. 248-269		периодика
75			да	I Saw Thee Weep	Ротчев	Ротчев А. Г.	Мелодия, подражание Байрону	Как утренней порой	Стихи, Еврейские мелодии	стихи	Московский телеграф 		1826	Ч. 10. № 16. Отд. 2		С. 135		периодика
76			да	The Destruction of Sennacherib	Ротчев	Ротчев А. Г.	Разбитие Сеннахерима	Как грозный вихрь на нас летят	Стихи, Еврейские мелодии	стихи	Московский телеграф 		1826	Ч. 7. № 2		С. 56-58		периодика
77	да		да	Don Juan	Ротчев	Ротчев А. Г.	Песнь Грека. Подражание Байрону из Дон-Жуана 	Страна, где Делос красотой	Поэмы	стихи	Урания		1826			С. 191-193		периодика
78			да	The Death of Calmar and Orla 	Ф. Созонович	Созонович Ф.	Смерть Кальмара и Орлы. Подражание Оссиану Макферсона. Пер. с англ. 		Поэмы	стихи	Сын отечества		1826	Ч. 105. № 4		С. 331-339		периодика
79	да		да	Lachyn-y-Qair	П. Шкляревский	Шкляревский П. П.	Лакин-и-Гер (Из Байрона)	Сокройтесь от взоров, поляны с цветами	Стихи	стихи	Календарь муз на 1826-й год		1826	Отд. 2		С. 133-137		периодика
80			да	The Giaour	Я.	Яковлев М. А. (?)	Гяур [в прозе] 		Поэмы	проза	Новости литературы		1826	Кн. 17. Сентябрь-октябрь		С. 114-154		периодика
81			да	The Corsair 	Я.	Яковлев М. А. (?)	Корсар. Песнь третья [в прозе]		Поэмы	проза	Новости литературы		1826	Кн. 15. Январь		С. 1-28		периодика
82			да	Lara	Я	Яковлев М. А. (?)	Лара (Из Лорда Бейрона). Песнь первая [в прозе] 		Поэмы	проза	Новости литературы		1826	Кн. 15. Март		С. 110-134		периодика
83			да	Lara	Я.	Яковлев М. А. (?)	Лара (Из Лорда Бейрона). Песнь вторая [в прозе] 		Поэмы	проза	Новости литератруры		1826	Кн. 16. Апрель		С. 19-39		периодика
86	да	да	да	The Dream	М.В. 	Вронченко М. П.	Сон	В нас жизнь двояка: сон имеет мир свой	Стихи	стихи	Московский телеграф 		1827	Ч. 15. № 12. Отд. 2		С. 129-136		периодика
87	да	да	да	Manfred	М. В-о	Вронченко М. П.	Хор духов (Из Байронова Манфреда: When the moon is on the wave). Пер. с англ.	В час ночной, когда луной	Драматургия	стихи	Московский телеграф 		1827	Ч. 15. № 10. Отд. 2		С. 57-59		периодика
88	да	да	да	Manfred	М.В.	Вронченко М. П.	Отрывки из Байронова сочинения: Манфред (Действие 1-е, явление 2-е)	"Напрасно все; оставленный духами"	Драматургия	стихи	Московский телеграф 		1827	Ч. 17. № 18. Отд. 2		С. 65-72		периодика
89	да	да	да	The Dream	Дмитрий Глебов	Глебов Д. П.	Сон (Из Байрона)	Друзья, внимайте: чудный сон!	Стихи	стихи	Северные цветы на 1827		1827			С. 322-328		периодика
90	да	да	да	Lara	Иван Козлов	Козлов И. И.	Ночь в замке Лары (из Лорда Байрона)	Настала ночь, небесный свод в звездах	Поэмы	стихи	Славянин		1827	Ч. 2. № 14. Отд. 2.		С. 26-30		периодика
				The Lament of Tasso	В. Трубников	Трубников В.	Отрывок из поэмы Лорда Бейрона: Сетование Тасса	Как медленно несется время!	Поэмы	стихи	Славянин		1827	Ч. 2. № 26		С. 468-473	С. Кипчаково. 1826	периодика
						Маркевич Н. А.	Мелодия (Подражание)	Ты восхитительна как несчастливца сон	Стихи		Славянин		1827	Ч. 2. № 17				периодика
						Маркевич Н. А.	Первая любовь	Как сладко в час ночной	Стихи	стихи	Славянин		1827.	Ч. 2. № 21				периодика
91	да	да	да	She Walks in Beauty	Ознобишин	Ознобишин Д. П.	She Walks in Beauty (Еврейская мелодия лорда Байрона)	Она идет, сияя красотою	"Стихи; Еврейские мелодии"	стихи	Северная лира на 1827		1827			С. 51		периодика
92	да	да	да	Parisina	В. Пушкин	Пушкин В. Л.	Отрывок. Подражание Байрону 	Вот час, когда вечерний соловей	Стихи	стихи	Литературный музеум на 1827		1827			С. 247		периодика
93	да	да	да	Lines Written in an Album at Malta	Ф. Тютчев	Тютчев Ф. И.	В альбом друзьям (Из Л. Байрона) 	Как медлит путника вниманье	Стихи	стихи	Северная лира на 1827		1827			С. 441		периодика
95	да	да	да	Lines Written in an Album at Malta	***	М. Суханов	В альбом (Подражание Байрону) 	Как хладный камень гробовой	Стихи	стихи	Дамский журнал		1828	Ч. 23. № 14		С. 76		периодика
96	да	да	да	Child Harold's Pilgrimage	К. Батюшков	Батюшков К. Н.	Элегия	Есть наслаждение и в дикости лесов	Поэмы	стихи	Северные цветы на 1828		1828	Отд. 2		С. 23		периодика
97	да	да	да	Lachyn-y-Qair	Д. Богданова	Богданов Д.	Лакин-и-Гер 	Сокройтесь от очей, веселые картины	Стихи	стихи	Сын отечества		1828	Ч. 120. № 15		С. 268-271		периодика
98	да	да	да	Vision of Belshazzar	И. Бороздна	Бороздна И. П.	"Видение Валтазара (Вольный перевод из ""Еврейских мелодий"" Байрона)"	На троне Царь. Среди палат	Стихи,  Еврейские мелодии	стихи	Московский телеграф 		1828	Ч. 19. № 2		С. 193-195		периодика
99	да	да	да	Darkness	Вронченко	Вронченко М. П. 	Мрак (Из Байрона)	Я видел сон, не вовсе бывший сном	Стихи	стихи	Атеней		1828	Ч. 2. № 6		С. 150-152	этой части нет в vk 	периодика
100	да	да	да	The Death of Calmar and Orla 	Загорский	Загорский М. П.	Колмар и Орла. Поэма. Из лорда Байрона	Как нашей юности минувшей дни нам милы!	Поэмы	стихи	Славянин		1828	Ч. 8. № 51. Отд. 2		С. 451-460		периодика
101	да	да	да	The Wild Gazelle	А. Киров	Киров А.	Еврейская мелодия, из Байрона		"Стихи; Еврейские мелодии"	стихи	Славянин		1828	Ч. 7. № 39. Отд. 2		С. 505-506		периодика
102	да	да	да	My Soul Is Dark	А. Киров	Киров А.	Еврейская мелодия, из Байрона	Душа моя мрачна! играй, певец младой	"Стихи; Еврейские мелодии"	стихи	Славянин		1828	Ч. 8. № 41. Отд. 2		С. 67-68		периодика
103	да	да	да	Oh, Shatched away in Beauty's Bloom	А. Киров	Киров А.	Еврейская мелодия, из Байрона	О ты, увядшая во цвете юных дней	"Стихи; Еврейские мелодии"	стихи	Славянин		1828	Ч. 8. № 42. Отд. 2		С. 105		периодика
104	да	да	да	I Saw Thee Weep	А. Киров	Киров А.	Еврейская мелодия, из Байрона	Я зрел тебя – твой взор прелестный	"Стихи; Еврейские мелодии"	стихи	Славянин		1828	Ч. 8. № 44. Отд. 2		С. 191		периодика
105	да	да	да	Manfred	Иван Козлов	Козлов И. И.	Обворожение (Из Лорда Бейрона). Князю П. А. Вяземскому	Когда луна сребрит поток	Драматургия	стихи	Невский альманах		1828			С. 347-352		периодика
				Lines Written in an Album at Malta	И. Козлов	Козлов И. И.	В альбом ***	Когда над сонною рекой	Стихи	стихи	Невский альманах		1828					периодика
					В. М.	Вронченко М. П. (?)	Последние стихи Лорда Байрона	Пора недвижным сердцу быть	Стихи	стихи	Русский Зритель		1828	Ч. 1. № 3-4		С. 208-210		периодика
					А. Редкин	Редкин А.		В тебе приветная луна (подражание)	Стихи	стихи	Цевница		1828			С. 37		периодика
106	да	да	да	Oscar of Alva	П. Кудряшев 	Кудряшев П. М.	Оскар Альвский. Повесть 	Светило ночное лучи разливает	Поэмы	стихи	Вестник Европы		1828	№ 4		С. 265-278		периодика
107	да	да	да	Marino Faliero	Н. Маркевич	Маркевич Н. А.	Ночь в Венеции: (из трагедии Лорда Байрона)	Я отдохну. Я утомлен	Драматургия	стихи	Московский телеграф 		1828	Ч. 19. № 3		С. 324-327		периодика
108			да	Manfred	О.	Облеухов Д. А.	Манфред	Лампада гаснет – здесь и вне	Драматургия	стихи	Московский вестник		1828	Ч. 8. № 7		С. 241-289	"Рецензия: [Киреевский И.В.]. Нечто о переводах Манфреда (Отрывок из письма издателю). МВ. 1828. № 7. С. С. 352-354; СПч. 1828. № 89-90; СО. 1828. № 1.С. 308-310"	периодика
111			да	Don Juan	Ш.	[Аноним]	Дон Жуан. 14 песня. Пер. с англ. Ш. [в прозе]		Поэмы	проза	Московский телеграф 		1829	Ч. 25 № 1, 2		"С. 38-54; С. 179-195"	в пдф-е нет первой страницы текста!	периодика
112	да	да	да	Don Juan	Н. Маркевич	Маркевич Н. А.	"Отрывок из поэмы ""Дон Жуан"" "	"Героя нужно мне; но, странно!"	Поэмы	стихи	Московский телеграф 		1829	Ч. 26. № 7		С. 248-256		периодика
113	да	да	да	Vision of Belshazzar	б.п.	Полежаев А. И. 	Видение Валтасара	Царь на троне сидит	Стихи, Еврейские мелодии	стихи	Московский телеграф 		1829	Ч. 25. № 2. Отд. 1		С. 175-176		периодика
114	да	да	да	Darkness	Ротчев	Ротчев А. Г.	Тьма (Из Лорда Байрона)	Сон дивный посетил меня	Стихи	стихи	Северные цветы на 1829		1829	Отд. 2		С. 137-141		периодика
				Vision of Belshazzar		Полежаев А. И. 	Видение Валтасара		Стихи, Еврейские мелодии	стихи	Галатея		1829	Ч. 1. № 6		С. 331		периодика
				The Siege of Corinth	Трилунный	Струйский Д. Ю.	Осада Миссолунги (подр.)		Поэмы	стихи	Галатея.		1829	Ч. 5. № 26. С. 252-257, Ч. 7. № 32. С. 43-49, Ч. 9. № 43. С. 98-103, Ч. 10. № 47. С. 43-47.				периодика
							Ода Наполеону			стихи	Славянин		1829	Ч. 11. № 31-32		С. 182-187		периодика
							Тьма 		Стихи	стихи	Русский зритель		1829	Ч. 4. № 13-14.		С. 64-67		периодика
115	да	да	да	The Giaour	Трилунный	Струйский Д. Ю.	Отрывок из поэмы Лорда Байрона: Гиаур	Не бьются спящие валы	Поэмы	стихи	Галатея		1829	№ 19		С. 175-181		периодика
116	да	да	да	The Giaour	П. Шереметьевский 	Шереметьевский П.	Отрывок из повести лорда Байрона: Гяур	Солнце к западу склонилось	Поэмы	стихи	Зимцерла		1829	Отд. 2		С. 30-42		периодика
117	да	да	да	Child Harold's Pilgrimage	А. С.	[Аноним]	Прощальная песнь	Прости, родимая страна	Поэмы	стихи	Вестник Европы		1830	№ 4		С. 267-270		периодика
118	да	да	да	Oscar of Alva	…в	[Аноним]	Оскар Альвский. Повесть [в прозе] 		Поэмы	проза	Дамский журнал		1830	Ч. 32. № 40		С. 1-9		периодика
119	да	да	да		В. Гаркуша	Гаркуша В.	Турецкая элегия (Подражание Байрону)	Я арфу дал тебе - царицу песней славы	"Стихи; Еврейские мелодии"		Подснежник		1830			С. 93–94		периодика
120	да	да	да	Don Juan	И. Козлов	Козлов И. И.	"Из Байронова ""Дон Жуана"" (Вольное подражание)"	О, любо нам! Как месяц полный	Поэмы	стихи	Северные цветы на 1830		1830	Отд.2		С. 106		периодика
121	да	да	да	The Siege of Corinth	Иван Козлов	Козлов И. И.	Явление Франчески (Из осады Коринфа). Лорда Байрона	Он у столба на камень сел	Поэмы	стихи	Невский альманах		1830			С. 157-165		периодика
122	да	да	да	On Jordan's Banks	Ободовский	Ободовский П. Г.	Глас мщения (Подражание Байрону)	Вельблюд Араба пьет из Иордана	"Стихи; Еврейские мелодии"	стихи	Галатея		1830	Ч. 12. № 8		С. 77-78		периодика
123	да	да	да	On Jordan's Banks	П. Ободовский	Ободовский П. Г.	Глас мщения (Подражание Байрону)	Вельблюд Араба пьет из Иордана	"Стихи; Еврейские мелодии"	стихи	Невский альманах		1830			С. 226		периодика
124			да	Child Harold's Pilgrimage	Трилунный	Струйский Д. Ю.	Отплытие Чайльд-Гарольда (Из Байрона)	Никто Гарольда не любил	Поэмы	стихи	Литературная газета 		1830	№ 35		С. 279-280		периодика
125	да	да	да	The Giaour	Трилунный	Струйский Д. Ю.	Отрывок из Гьяура	Утес над бездною висит	Поэмы	стихи	Галатея		1830	Ч. 18. № 39		С. 82-85		периодика
126	да	да	да	Child Harold's Pilgrimage	В. Щастный	Щастный В. Н.	Умирающий гладиатор. Из IV песни Байронова Чайльд-Гарольда 	Я зрю бойца. Поверженный во прах	Поэмы	стихи	Невский альманах		1830			С. 397-398		периодика
							Стансы на музыку	Нет, ни одной из дщерей красоты	Стихи	стихи	Московский вестник		1830	Ч. 6. № 21-24		С. 27		периодика
							К моему сыну				Литературная газета 		1830	№ 13-14				периодика
				Child Harold's Pilgrimage	Трилунный	Струйский Д. Ю.		Развалины! Священные Афины…	Поэмы	стихи	Московский вестник		1830	Ч. 6. № 21-24		С. 14-16		периодика
				Werner					Драматургия		РЗ. Театральный альманах на 1830 год.							периодика
					Ш-ш-нъ	Шеншин	Умершей любовнице				Северный Меркурий		1830	№ 29		С. 113-116	см. Там же. № 53 С. 209-212	периодика
128			да		б.п.	[Аноним]	Записки Лорда Байрона, изданные Томасом Муром. Том четвертый	Подпавший рано под владычество чувств	Записки	проза	Колокольчик		1831	№ 13		С. 49-50		периодика
129			да		NN	[Аноним]	Записки Лорда Байрона, изданные Томасом Муром. Том четвертый	26 генваря 1821. Прекрасный день	Записки	проза	Колокольчик		1831	№ 14		С. 53-54		периодика
130	да	да	да	The Bride of Abydos	б.п.	[Аноним]	"Зюлейка [Отрывок из ""Абидосской невесты""] [в прозе]"		Поэмы	проза	Молва		1831	№ 23.		С. 1		периодика
131	да	да	да	Lines Written in an Album at Malta	В. О-в	[Аноним]	В альбом В. И. Ор….вой. Из Байрона	Как иногда на камне гробовом	Стихи	стихи	Гирлянда		1831	Ч. 1. Кн. 9.		С. 219		периодика
132	да	да	да	Sardanapalus	Вронченко	Вронченко М. П.	Сон Сарданапала (Сарданапал, Траг. Л. Байрона. Действие IV, явл. I)		Драматургия	стихи	Одесский альманах		1831			С. 228-238		периодика
133	да	да	да	Child Harold's Pilgrimage	Трилунный 	Струйский Д. Ю.	Море, подражание Байрону	Волнуйся, синий океан!	Поэмы	стихи	Альциона		1831	Отд. 2		С. 46-47		периодика
134	да	да	да	Darkness	Трилунный 	Струйский Д. Ю.	Тьма (Подражание Байрону)	Непостижимый, грозный сон!	Стихи	стихи	Северные цветы на 1832		1831	Отд. 2		С. 35		периодика
135	да	да	да	Child Harold's Pilgrimage	Павел Чижов	Чижов П.	Прощание Чайльд-Гарольда (Из Лорда Байрона)	Прощай, прощай, мой край родной!	Поэмы	стихи	ЛПРИ		1831	Ч. 2. № 47		С. 366-367		периодика
136	да	да	да	Prometheus	М. Юз…	Юзефович М. В.	Прометей (Подражание Байрону)	Титан! Ты зрел, как страждет человек	Стихи	стихи	Одесский альманах		1831			С. 106-107		периодика
137	да	да	да		П. Др-в	[Аноним]	Легкая смерть (Из Байрона)	Когда придешь, моя пора	Стихи	стихи	Северная Минерва		1832	№ 13.		С. 15-16		периодика
138	да	да	да	Lines Written in an Album at Malta	В. Межевич	Межевич В.С.	В альбом к *** (Из Байрона) 	Как взор прохожего надгробием простым	Стихи	стихи	Молва		1832	№ 84		С. 333		периодика
139	да	да	да	The Giaour	В. Трубников	Трубников В.	"Отрывок из ""Гяура"" (Поэмы лорда Байрона)"	Утес огромный над водою	Поэмы	стихи	ЛПРИ		1832	Ч. 6. № 52		С. 415-416		периодика
				Marino Faliero	В. Романович	Любич-Романович В. И.	Баркарола		Драматургия		Альциона на 1832		1832					периодика
140	да	да	да	Darkness	Вронченко	Вронченко М. П.	Мрак (из Байрона)	Я видел сон, не вовсе бывший сном	Стихи	стихи	ЛПРИ		1833	Ч. 9. № 21		С. 167		периодика
				The Bride of Abydos	И. Козлов	Козлов И. И.	(Из Байрона)	Любовник розы, соловей…	Поэмы	стихи	Северная лютня. Майский подарок любительницам пения. Собрание самых новейших романсов, элегий и песен		М., 1833			С. 14		периодика
141	да	да	да	Don Juan	Ознобишин	Ознобишин Д. П.	Письмо Юлии к Дон-Жуану	Все кончено!... Ты едешь, я узанала	Поэмы	стихи	Молва		1833	№ 84		С. 333-334		периодика
142	да	да	да	The Lament of Tasso	В. Трубников	Трубников В.	Сетование Тасса. Поэма лорда Байрона	Как медленно несется время	Поэмы	стихи	ЛПРИ		1833	Ч. 10. № 52		С. 411-416		периодика
143	да	да	да	Child Harold's Pilgrimage	И. Гогниев	Гогниев И. Е.	Прощанье Байрона с дочерью (Из Чайльд-Гарольда)	Сходно ль ты с матерью своей 	Поэмы	стихи	ЛПРИ		1834	Ч. 15. № 58		С. 463-464		периодика
144	да	да	да	Child Harold's Pilgrimage	И. Козлов	Козлов И. И.	Байрон в Колизее. Отрывок из IV песни Чайльд-Гарольда	О время, мертвых украшатель	Поэмы	стихи	Библиотека для чтения		1834	Т. 7. № 12.	Отд. 1	С. 120-123		периодика
145	да	да	да		И. Козлов	Козлов И. И.	Станцы из Лорда Бейрона	Меж дев, волшебными красами	Стихи	стихи	Библиотека для чтения		1834	Т. 3. № 4	Отд. 1	С. 23		периодика
146	да	да	да	Lines Written in an Album at Malta	Ал. Бистром	Бистром А.	В альбом Ал. Мо….нъ К.Р.П.Н.К.ВОЙ (Из Байрона)	Как имя скрытое под гробовой доской	Стихи	стихи	ЛПРИ		1835	Ч. 17. № 7.		С. 54-55		периодика
147	да	да	да	The Destruction of Sennacherib	И. Гогниев	Гогниев И. Е.	Разбитие Сеннахерима (Из Байрона)	Как волк на добычу нахлынул вдруг он!	Стихи, Еврейские мелодии	стихи	Библиотека для чтения		1835	Т. 13. Отд. 11		С. 21-22		периодика
148	да	да	да	Child Harold's Pilgrimage	И. Козлов	Козлов И. И.	Добрая ночь. Из Байронова Шильд-Гарольда	Прости, прости, мой край родной!	Поэмы	стихи	Весенние цветы, или Собрание романсов, баллад и песен А. Пушкина, Жуковского, Козлова, Баратынского, Туманского, Ф. Глинки, Ознобишина, Раича, Маркевича, Вяземского и проч. М., 1835		1835			С. 149-154		периодика
149	да	да	да		С. Ротчев	Ротчев А. Г.	Стансы. Из Байрона	В свете радость невозвратно	Стихи	стихи	Весенние цветы, или Собрание романсов, баллад и песен А. Пушкина, Жуковского, Козлова, Баратынского, Туманского, Ф. Глинки, Ознобишина, Раича, Маркевича, Вяземского и проч. М., 1835		1835			С. 116-118		периодика
					И. Гогниев	Гогниев И. Е.		Свободно прядает газель	Стихи, Еврейские мелодии	стихи	Библиотека для чтения		1836	Т. 15. № 3				периодика
150	да	да	да	If That High World	И. Козлов	Козлов И. И.	Еврейская мелоди. Из Байрона	Когда в нетленном мире том	Стихи, Еврейские мелодии	стихи	Библиотека для чтения		1836	Т. 19. № 11	Отд. 1	С. 16		периодика
151			да	The Prisoner of Chillon	Жуковский	Жуковский В. А.	Шильонский узник	Взгляните на меня: я сед!...	Поэмы	стихи	Журнал для чтения воспитанников военно-учебных заведений		1837	Т. 8. № 29		С. 3-17		периодика
152	да	да	да	Mazeppa	Я.Г.	Грот Я. К.	Мазепа. Поэма	Замолкли громы под Полтавой	Поэмы	стихи	Современник		1838	Т. 9.	Отд. 7	С. 94-128	дата: февраль, 1837.	периодика
				The Giaour	Ив. Козлов	Козлов И. И.		Блестя на пурпурных крылах	Поэмы	стихи	Литературная газета 		1838	№ 15				периодика
153	да	да	да	The Giaour	Ив. Козлов	Козлов И. И.	"Из ""Джяура"" (Подражательный перевод)"	Блестя на пурпурных крылах	Поэмы	стихи	ЛПРИ		1838	№ 24		С. 466		периодика
154	да	да	да	The Corsair	Иван Козлов	Козлов И. И.	"Стансы (Из ""Морского разбойника"" лорда Байрона)"	Глубоко в тишине, предав навек безмолвью	Поэмы	стихи	Альманах на 1838 год		1838			С. 291		периодика
155	да	да	да		И.Мейстер	Мейснер А. Я.	К Тирзе (из Байрона)	Еще одно усилие, и я свободен	Стихи	стихи	ЛПРИ		1838	№ 11		С. 208-209	эпиграф: One struggle more, and I am free etc.	периодика
156			да	The Dream	б.п.	[Аноним]	Сон (Из Байрона)	Жизнь двойственна: у сна особый мир	Стихи	стихи	ЛПРИ		1839	Т. 2. № 3		С. 47-49	примечание: это стихотворение, написанное лордом Байроном в Диодати в июле 1816 года, стоило ему, говорит Мур, многих слез. Он изобразил в нем историю несчастной любви своей к мисс Мери Чауорт (Chaworth), впоследствии мистрисс Местер (Musters)	периодика
157			да	Child Harold's Pilgrimage	***	[Аноним]	Из Чайльд Гарольда	На твой привет не в силах я…	Поэмы	стихи	Галатея		1839	Ч. 5. № 36		С. 29-31		периодика
					Нат. Василькович	Василькович Н.	Экспромт	Когда заметишь ты, что мрачною печалью	Стихи	стихи	Галатея		1839	Ч. 3		С. 74		периодика
158			да	My Soul Is Dark	П. Волков	Волков П. Г.	Мелодия (Из Байрона)	Я грустен. На арфе взыграй златострунной!	"Стихи; Еврейские мелодии"	стихи	Библиотека для чтения		1839	Т. 36. № 10	Отд. 1	С. 143		периодика
159			да	My Soul Is Dark	М. Лермонтов	Лермонтов М. Ю.	Душа моя мрачна. Скорей, певец, скорей!..	Душа моя мрачна. Скорей, певец, скорей!..	Стихи, Еврейские мелодии	стихи	Отечественные записки		1839	Т. 4. № 6	Отд. 3	С. 80		периодика
160			да	Lines Written in an Album at Malta	М. Лермонтов	Лермонтов М.Ю.	В альбом (Из Байрона)	Как одинокая гробница	Стихи 	стихи	Отечественные записки		1839	Т. 4. № 6	Отд. 3	С. 81		периодика
161			да	Lines Written in an Album at Malta	В.Межевич	Межевич В. С.	Из Байрона	Как взор прохожего надгробием простым	Стихи	стихи	Литературная газета 		1840	№ 12		С. 273		периодика
				Child Harold's Pilgrimage	Б-ский	Буняковский В.			Поэмы	стихи	Маяк		1840	Ч. 12		С. 19		периодика
						Зотов В. Р.		Ты жизнию меня	Стихи	стихи	Маяк		1841	Т. 1				периодика
165			да	Manfred	А. Бородин	Бородин А. Н.	Манфред. Драматическая поэма в 3-х действиях. Сочинение лорда Байрона		Драматургия	стихи	Пантеон русского и всех европейских театров 		1841	Ч. 1. Кн. 2	Отд. 1	С. 1-24		периодика
166			да	Fill the Goblet Again	В. Зотов	Зотов В. Р.	Застольная песня (из Байрона)	Наливай, наливай кубок светлый вином	Стихи	стихи	Репертуар русского театра		1841	Т. 2. Кн. 12	Отд. 5	С. 25		периодика
167			да		В. Зотов	Зотов В. Р.	Слеза	Когда в нас любовь	Стихи, Еврейские мелодии	стихи	Репертуар русского театра		1841	Т. 2. Кн. 12	Отд. 5	С. 24		периодика
163			да		Л-в	Л-в	Два стихотворения из Байрона. 1. О жизнь моя в час неги и любви	О жизнь моя в час неги и любви 	Стихи	стихи	Репертуар русского театра		1841	Т. 1. Кн. 3	Отд. 5	С. 2-3		периодика
164			да	Lines Inscribed Upon a Cup Formed from a Skull	Л-в	Л-в	Два стихотворения из Байрона. 2. Стихи, написанные на чаше, сделанной из человеческого черепа	Не морщись - пей! - Мой дух еще со мной	Стихи	стихи	Репертуар русского театра		1841	Т. 1. Кн. 3	Отд. 5	С. 3	"примечание: Байрон вот что говорит об этой чаше: ""Садовник, роя землю, нашел череп, который, вероятно, принадлежал какому-нибдь умершему брату аббатства; при взгляде на гигантскую форму черепа и на то, что он совершенно сохранился, мне пришла странная фантазия сделать из него чашу для питья. С этою целью я отправил его в город, и он воротился ко мне прекрасно выполированный под цвет черепахи"""	периодика
168			да	Stanzas for Music	Н. Огарев	Огарев Н. П.	Стансы (Из Байрона)	Ни одна не станет в споре	Стихи, Еврейские мелодии	стихи	Отечественные записки		1841	Т. 19. № 12	Отд. 3	С. 183		периодика
169			да	On this Day I Complete my Thirty-Sixth Year	К. П-ва	Павлова К. К.	"Последние стихи Лорда Байрона (""Пора остыть душе гонимой…"")"	Пора остыть душе гонимой	Стихи	стихи	Москвитянин		1841	Ч. 2. № 3	Отд. 1	С. 110-111	"дата перед текстом: Миссолунги, 22 января 1824 года; примечание: в день ео рожденья, когда ему минуло тридцать шесть лет"	периодика
170			да	Child Harold's Pilgrimage	К. П-ва	Павлова К. К.	Аполлон Белведерский (Отрывок из Байрона)	Вот он - владыка неизбежных стрел…	Поэмы	стихи	Москвитянин		1841	Ч. 6. № 12	Отд. 1	С. 294-295		периодика
171			да	Sardanapalus	Д.	Каменский Д.	Сарданапал [Действие 1-е. Явл. 1 и 2]	"Он оскорбил царицу; но он царь"	Драматургия	стихи	Русский вестник		1842	№ 7-8	Отд. 1	С. 1-20	помета под текстом: из Байрона	периодика
					Н. Ш.		Мелодия	Когда ты заплачешь	Стихи, Еврейские мелодии	стихи	Подземные ключи		1842			С. 221		периодика
					Ю. П.	Познанский Ю. 		На глас моих отцов, к чертогам их лазурным			Русский вестник		1842.	Т. 5. № 3		С. 159		периодика
172			да	Child Harold's Pilgrimage	М. Лермонтов	Лермонтов М. Ю. 	Умирающий гладиатор 	Ликует буйный Рим… торжественно гремит	Поэмы	стихи	Отечественные записки		1842	Т. 21. № 4	Отд. 1	С. 378	"дата: 2 февраля 1836 г.; эпиграф: I see before me the gladiator lie…"	периодика
173	да	да	да	Beppo	В. Любич-Романович	Любич-Романович В. И.	Беппо. Венецианская повесть (вольный перевод из сочинений Байрона)	Читатель знает, без сомненья	Поэмы	стихи	Сын отечества		1842	Ч. 2. Кн. 3-4. № 4	Отд. 4	С. 1-36		периодика
174	да	да	да	The Corsair	П. Петровский	Петровский П. 	Корсар в плену у Сеида. Эпизод из Бирона, имровизированный господином Джустиниани. Форма подлинника	В страшной мгле глухой полночи	Поэмы	стихи	Библиотека для чтения		1842	Т. 50	Отд. 1	С. 13-15		периодика
175	да	да	да	Impromtu, in Reply to a Friend	Наталья Василькович	Василькович Н.	Экспромпт (из Байрона)	Когда заметишь ты, что мрачною печалью	Стихи	стихи	Молодик		1843	Ч. 1		С. 249	дата: Москва. 1839	периодика
176	да	да	да	Lines Written in an Album at Malta	В. Гаевский	Гаевский В. П.	В альбом (из Байрона)	Как на себя невольно обратят	Стихи	стихи	Сын отечества		1843	Кн. 5. № 5	Отд. 3	С. 3-4		периодика
177	да	да	да	Impromtu, in Reply to a Friend	С.Д.	Дуров С. Ф.	Из Байрона	Когда из глубины души моей больной	Стихи	стихи	Литературная газета 		1843	№ 43		С. 766		периодика
178	да	да	да	Oh, Shatched away in Beauty's Bloom	И. Крешев	Крешев И. П.	Мелодия (из Байрона)	Угаснешь ты весной своих цветущих дней	Стихи, Еврейские мелодии	стихи	Библиотека для чтения		1843	Т. 58.	Отд. 1	С. 123		периодика
179	да	да	да	By the Rivers of Babylon 	Полугарский	Полугарский И. И.	Переложение псалма 136	У вод в роскошном Вавилоне	Стихи, Еврейские мелодии	стихи	Журнал для чтения воспитанников военно-учебных заведений		1843	Т. 43. №171		С. 401-402		периодика
					Н. Ш.		Мелодия	Когда ты заплачешь	Стихи, Еврейские мелодии	стихи	Отечественные записки		1843	Т. 26		С. 54-55		периодика
				Sardanapalus	Д.	Каменский Д.			Драматургия		Русский вестник		1843.	Т. 8-9	Отд. 1	С. 1		периодика
180	да	да	да	Mazeppa	И. Гогниев	Гогниев И. Е.	Мазепа. Повесть лорда Байрона	Над Карлом в страшный день Полтавы	Поэмы	стихи	Репертуар и Пантеон		1844	Т. 8. Кн. 10	Отд. 3	С. 33-60		периодика
181	да	да	да	Vision of Belshazzar	Д. Коптев	Коптев Д. И.	Видение Валтасара. Подражание Байрону	Во храмине богатой	Стихи, Еврейские мелодии	стихи	Современник		1844	Т. 36. № 10		С. 106-107	дата: 26 мая, 1844 г.	периодика
182	да	да	да	Sun of the Sleepless	Кн. Н. Мансырев	Мансырев  Н. Н.	Из Байрона	Светило полночи, унылая луна!	"Стихи; Еврейские мелодии"	стихи	Москвитянин		1844	Ч. 3. № 5	Отд. 1	С. 7		периодика
183	да	да	да	The Spell Is Broke	Салтыков	Салтыков-Щедрин М. Е.	Из Байрона	Разбит мой талисман, исчезло упоенье!	Стихи	стихи	Современник		1844	Т. 35. № 7		С. 105	дата: 1842	периодика
					В. Золотоницкий	Золотницкий В.	Прости	О если небесам святым	Стихи	стихи	Современник		1844	Т. 35				периодика
184			?	The Giaour	б.п.	Студитский А. Е.	Гяур. Отрывок из Турецкой повести Л. Байрона	Не дышет ветр, не плещет вал…	Поэмы	стихи	Москвитянин		1844	Ч. 2. № 3	Отд. 1	С. 1-44		периодика
185			да	Sun of the Sleepless	А. Фет	Фет А. А.	Еврейская мелодия (Из Байрона)	О, солнце, глаз бессоных, звездный луч	Стихи, Еврейские мелодии	стихи	Репертуар и Пантеон		1844	Т. 7. Кн. 8	Отд. 9	С. 367		периодика
186			да	Monody on the Death of the Right Hon. R. B. Sheridan, spoken at Drury-Lane Theatre, London	б.п.	[Аноним]	Элегия на смерть Р. Б. Шеридана, произнесённая на Дрюриленской сцене	Кто не чувствовал летним вечером	Стихи	проза	Литературная газета 		1845	№ 33		С. 538		периодика
187			да	Farewell! If Ever Fondest Prayer	А. Григорьев	Григорьев А. А.	Прости (Farewell). Из Байрона	Прости! и ежели другим	Стихи	стихи	Репертуар и Пантеон		1845	Т. 9. Кн. 3	Отд. 5	С. 835		периодика
188			да	Bright be the Place of Thy Soul	С. Дуров 	Дуров С. Ф.	Мелодия (Из Байрона)	Да будет вечный мир с тобой	Стихи, Еврейские мелодии	стихи	Библиотека для чтения		1845	Т. 69. № 4	Отд. 1	С. 158-159		периодика
189			да	Impromtu, in Reply to a Friend	Салтыков	Салтыков-Щедрин М. Е.	Из Байрона	Когда печаль моя, как мрачное виденье	Стихи	стихи	Современник		1845	Т. 39. № 9		С. 306	дата: 1842 г.	периодика
191			да	Child Harold's Pilgrimage	А. Бржеский	Бржеский А. Ф.	Из Чайльд Гарольда	Корабль готов мой, мачта гнется	Поэмы	стихи	Иллюстрация		1846	Т. 3. № 36		С. 577	помета: С. Березовка 1845	периодика
192			да	When We Two Parted	С. Дуров	Дуров С. Ф.	Когда прощались мы с тобой	Когда прощались мы с тобой	Стихи	стихи	Иллюстрация		1846	Т. 2. № 17		С. 273	эпиграф: When we two parted	периодика
193			да	Oh, Weep for Those	С. Дуров 	Дуров С. Ф.	Мелодия (из Байрона)	О, плачьте над судьбой отверженных племен	"Стихи; Еврейские мелодии"	стихи	Иллюстрация		1846	Т. 2. № 18		С. 289		периодика
194			да	The Dream	С. Дуров	Дуров С. Ф.	Сон (Из Байрона)	Жизнь двойственна: Наш сон, как жизнь, имеет	Стихи	стихи	Иллюстрация		1846	Т. 3. № 37		С. 579-580	эпиграф: A dream which is not ale a dream. Darkness	периодика
195			да	Impromtu, in Reply to a Friend	С. Дуров	Дуров С. Ф.	Из Байрона	Когда из глубины души моей больной	Стихи	стихи	Иллюстрация		1846	Т. 3. № 39		С. 626		периодика
				The Prophecy of Dante	К. Картамышев	Картамышев К. В.	Посвящение Итальянке		Поэмы	стихи	Иллюстрация		1846	Т. 2. № 28				периодика
196			да	Darkness	Ив. Тургенева	Тургенев И. С.	Тьма (Из Байрона)	Я видел сон… не все в нем было сном	Стихи	стихи	Петербургский сборник		1846			С. 501-503		периодика
198			да	She Walks in Beauty	Н. Берг	Берг Н. В.	Л. Г. К. (Из Байрона). С. А. Юрьеву	Она идет, блистая красотою	"Стихи; Еврейские мелодии"	стихи	Московский городской листок		1847	№ 40		С. 162	дата: 1847. Февраля 16. Москва	периодика
199			да	Lines Written in an Album at Malta		Бржеский А. Ф.	В альбом (из Байрона)	Как надпись на камне холодном гробнице	Стихи	стихи	Иллюстрация		1847	Т. 4. № 5		С. 79	дата: 1845 г.	периодика
200			да	Bright be the Place of Thy Soul	А. Григорьев	Григорьев А. А.	Bright be the place of thy soul (Из Байрона)	Обитель души твоей будь	Стихи, Еврейские мелодии	стихи	Московский городской листок		1847	№ 166		С. 666		периодика
201			да		А. дела Гарде	Де-ла-Гарди А.	Из Байрона. А. М…..	Огонь полуденный в очах твоих разлился	Стихи	стихи	Литературная газета 		1847	№ 48		С. 758		периодика
				Don Juan				Ветер, небо…			Литературная газета 		1847	№ 35				периодика
202			да	If That High World	Н. Жандр	Жандр Н. П.	Еврейская мелодия (из Байрона). 1	Ты плакала: тоски слеза	"Стихи; Еврейские мелодии"	стихи	Невский альманах		1847			С. 207		периодика
203			да	I Saw Thee Weep	Н. Жандр	Жандр Н. П.	Еврейская мелодия (из Байрона). 2	О, если в высшем мире том	"Стихи; Еврейские мелодии"	стихи	Невский альманах		1847			С. 207		периодика
204			да	The Dream	Д. Коптев	Коптев Д. И.	Сон (из Байрона)	Двудольна жизнь. У сна особый мир…	Стихи	стихи	Московский городской листок		1847	№ 283		С. 1132	дата: 1816	периодика
205			да	From the Portuguese		Михайлов М. Л.	Подражание португальскому (из Байрона)	В час упоительный блаженства и любви	Стихи	стихи	Иллюстрация		1847	Т. 4. № 4		С. 62		периодика
								Как надпись странная на камне гробовом	стихи	стихи	Москвитянин		1849	Ч. 5. № 20		С. 318		периодика
206			да	Lines Inscribed Upon a Cup Formed from a Skull	В. Бенедиктов	Бенедиктов В. Г.	Стихи, вырезанные на чаше, сделанной из черепа (из Б.)	Не трепещи! Не унывай…	Стихи	стихи	Сын отечества		1849	Кн. 6. № 6	Отд. 3	С. 1-2		периодика
207			да	Lines Inscribed Upon a Cup Formed from a Skull	Н. Берг	Берг Н. В.	Стихи, написанные Байроном на чаше, сделанной из черепа	Зачем трепещешь ты? Не думай…	Стихи	стихи	Москвитянин		1849	Ч. 6. № 23	Отд. 2	С. 105-106	дата: 1849. Москва	периодика
208			да	The Dream	В. Красов	Красов В. И.	Сон (из Байрона) 	Жизнь наша двойственна	Стихи	проза	Отечественные записки		1849	Т. 63.	Отд. 8	С. 42-45		периодика
209			да	Lines written in an Album at Malta		Мей Л. А.	Из Байрона. В альбом	Как надпись странная на камне гробовом	Стихи	стихи	Москвитянин		1849	Ч. 5. № 20	Отд. 1	С. 338		периодика
210			да	Child Harold's Pilgrimage	Н. Берг	Берг Н. В.	Гладиатор (Из Байрона)	Я вижу: пал борец противником сраженный…	Поэмы	стихи	Москвитянин		1850	Ч. 1. № 2	Отд. 1	С. 185		периодика
211			да	The Destruction of Sennacherib	Брама	Брама Н. И.	Из Байрона 	Как хищные волки на мирное стадо	Стихи, Еврейские мелодии	стихи	Москвитянин		1850	Ч. 3. № 11	Отд. 1	С. 138		периодика
212			да	Child Harold's Pilgrimage	К. Павлова	Павлова К. К.	Начало IV главы Чальд-Гарольда (Перевод с Английского)	В Венеции мост вздохов подо мною	Поэмы	стихи	Киевлянин		1850	Кн. 3		С. 203-206	дата: 1850 г.	периодика
213			да	Farewell! If Ever Fondest Prayer	Н. Спиглазов	Спиглазов Н.	Прости (Из Байрона)	Прости, прости! И если дней безбурных	Стихи	стихи	Современник		1850	Т. 21. № 5	Отд. 6	С. 139		периодика
214			да	Parisina	А. Григорьев	Григорьев А. А.	Отрывок из Паризины Байрона [I-VI]	То час, когда из-за ветвей	Поэмы	стихи	Москвитянин		1851	Ч. 4. № 13		С. 3-6		периодика
215			да	Child Harold's Pilgrimage	К. Картамышев	Картамышев К. В.	Венеция (Из Байрона)	Невеста пышная полуденных зыбей	Поэмы	стихи	Москвитянин		1851	Ч. 3. № 9-10	Отд. 1	С. 53		периодика
216			да	Maid of Athens, Ere We Part	Н. Щербина	Щербина Н. Ф.	(Льву Ивановичу Арнольди)	Зоя милая, прощай!	Стихи	стихи	Отечественные записки		1851	Т. 75. № 3	Отд. 1	С. 110		периодика
217			да	On this Day I Complete my Thirty-Sixth Year	Н. Гербель	Гербель Н. В.	Сегодня мне исполнилось 36 лет (Из Байрона)	О сердце, замолчи, пора забыть страданья…	Стихи	стихи	Современник		1852	Т. 35. № 9	Отд. 1	С. 135-136		периодика
				On this Day I Complete my Thirty-Sixth Year	Н. В. Гербель	Гербель Н. В.	Сегодня мне исполнилось 36 лет. Мисолонги. 23 января 1824 г.	О сердце, замолчи, пора забыть страданья!	Стихи	стихи	Москвитянин		1852	Ч. 5. № 19	Отд. 4	С. 113		периодика
219			да	Impromtu, in Reply to a Friend	Де-Ротула	Де-Ротула	Из Байрона	Когда мое чело нахмурится тоскою	Стихи	стихи	Москвитянин		1852	Ч. 4. № 13	Отд. 1	С. 16		периодика
220			да	I Saw Thee Weep	П. Жадовский	Жадовский П. В.	Из Байрона	Я вижу, плачешь ты, и на лазури глаз	Стихи, Еврейские мелодии	стихи	Москвитянин		1852	Ч. 6. № 21	Отд. 1	С. 20		периодика
221			да	Don Juan	Дмитрий Мин. 6 апреля 1852	Мин Д. Е.	Гибель испанского корабля Santa Trinidada. Из Байронова Дон Жуана 	Корабль испанский, Santa Trinidada…	Поэмы	стихи	Москвитянин		1852	Ч. 5. № 20	Отд. 1.	С. 191-212		периодика
222			да	Stanzas to Augusta	Л.	Дружинин А. В.	То mistress Augusta Leigh (Из Байрона)	Хоть минули и счастье и слава	Стихи	стихи	Современник		1853	Т. 37. № 1	Отд. 1	С. 5-6		периодика
223			да		Н. Греков	Греков Н. П.	Элегия (Из Байрона)	О, если иногда средь светского волненья	Стихи	стихи	Отечественные записки		1854	Т. 97. № 12	Отд. 1	С. 214-215		периодика
224			да	Child Harold's Pilgrimage	Н. Греков	Греков Н. П.	Море (Из Байрона)	Опять я на волных! Опять передо мною	Поэмы	стихи	Отечественные записки		1854	Т. 97. № 12	Отд. 1	С. 216-217		периодика
225			да	Lines, On Hearing that Lady Byron Was Ill	Л.	Дружинин А. В.	Стихи, написанные при получении известия о болезни леди Байрон	Страдала ты — и не был я с тобою!..	Стихи	стихи	Современник		1854	Т. 43. № 1	Отд. 1	С. 11-12		периодика
				Lines Written in an Album at Malta	Ф. Тютчев	Тютчев Ф. И.	В альбом друзьям (Из Л. Байрона) 	Как медлит путника вниманье	Стихи	стихи	Современник		1854	№ 5				периодика
					Н. Греков	Греков Н. П.	Прости!	Прости! О если здесь молба	Стихи	стихи	Пантеон.		1855	Т. 22. № 8	Отд. 2	С. 3		периодика
					Н. Греков	Греков Н. П.	Последние стихи	Нет, время погасить огонь	Стихи	стихи	Пантеон.		1855	Т. 22. № 8	Отд. 2	С. 4		периодика
226			да	Stanzas to Augusta	Л*.	Дружинин А. В.	Из Байрона. То mistress Augusta Leigh 	Хоть минули и счастье и слава	Стихи	стихи	Для легкого чтения. Повести, рассказы, комедии, путешествия и стихотворения современных русских писателей. Т.1		1856			С. 171-172		периодика
227			да	Lines, On Hearing that Lady Byron Was Ill	Л*.	Дружинин А. В.	Стихи, написанные при получении известия о болезни леди Байрон	Страдала ты — и не был я с тобою!..	Стихи	стихи	Для легкого чтения. Повести, рассказы, комедии, путешествия и стихотворения современных русских писателей. Т. 1		1856			С. 173-174		периодика
228			да	Darkness	Тургенев И. С.	Тургенев И. С.	Тьма (Из Байрона)	Я видел сон… не все в нем было сном	Стихи	стихи	Для легкого чтения. Повести, рассказы, комедии, путешествия и стихотворения современных русских писателей. Т.3		1856			С. 213-616		периодика
						Попов В. П.	Если я иногда средь собранья людей		Стихи	стихи	Сын отечества		1856	№ 32				периодика
					Н. Павлов	Павлов Н. Ф.	Оставь меня		Стихи	стихи	Молва		1857	№ 13				периодика
229			да	Stanzas to Augusta	В. П. Попов. 10 февраля 1857	Попов В. П.	Из Байрона. К Августе	Хоть пора моей славы промчалась	Стихи	стихи	Сын отечества		1857	№ 9		С. 209		периодика
230			да	The Corsair 	В. Попов	Попов В. П.	Корсар. Трагедия в 3-х действиях		Поэмы	проза и стихи	Общезанимательный вестник		1857	Т. 2. № 19		С. 671-692		периодика
231			да	When Coldness Wraps this Suffering Clay 	К. С.	Случевский К. К.	Из Байрона (Еврейские мелодии). 1	Когда наш теплый труп по смерти остывает	Стихи, Еврейские мелодии	стихи	Общезанимательный вестник		1857	Т. 1. № 3		С. 118-119		периодика
232			да	Oh, Shatched away in Beauty's Bloom	К. С.	Случевский К. К.	Из Байрона (Еврейские мелодии). 2	Ты расстанешься с жизнию трудною	"Стихи; Еврейские мелодии"	стихи	Общезанимательный вестник		1857	Т. 1. № 3		С. 119		периодика
233			да		К. С. 	Случевский К. К. 	Стансы, из Байрона	Нам нельзя полуночных гуляний	Стихи	стихи	Общезанимательный вестник		1857	Т. 1. № 9		С. 350		периодика
234			да	Manfred	Е. Зарин	Зарин Е. Ф.	Манфред. Драматическая поэма		Драматургия	стихи	Библиотека для чтения		1858	Т. 150. № 8	Отд. 1	С. 1-46		периодика
235			да	Mazeppa	Д. М-х-л	Михайловский Д. Л.	Мазепа. Поэма		Поэмы	стихи	Современник		1858	Т. 69. № 5	Отд. 1	С. 5-30		периодика
236			да	On this Day I Complete my Thirty-Sixth Year	В. Попов	Попов В. П.	Из Байрона	Пора тебе, сердце, в покое забыться	Стихи	стихи	Общезанимательный вестник		1858	Т. 1. № 9		С. 433		периодика
237			да	Farewell! If Ever Fondest Prayer	Н. Спиглазов	Спиглазов Н.	Прости	Прости, прости! И если дней безбурных... 	Стихи	стихи	Ярославские губернские ведомости. Часть неофициальная		1858	№ 2		С. 14		периодика
239			да	The Destruction of Sennacherib	Н. Гербель	Гербель Н. В.	Поражение Сеннахерима (Из Байрона)	Как волки на стадо, враги набежали…	Стихи, Еврейские мелодии	стихи	Отечественные записки		1859	Т. 127. № 11	Отд. 1	С. 244		периодика
				On this Day I Complete my Thirty-Sixth Year	Н. В. Гербель	Гербель Н. В.	Сегодня мне исполнилось 36 лет. Мисолонги. 23 января 1824 г.	О сердце, замолчи, пора забыть страданья!	Стихи	стихи	Детский журнал		1859.	Т. 3. № 7		С. 67		периодика
				Remembrance	А. Г.	Григорьев А. А.	Из Байрона 	Все кончено! Мечты мои пропали	Стихи	стихи	Меркурий мод		1859	№ 10		С. 151		периодика
241			да	Parisina	Ап. Григорьев	Григорьев А. А.	Паризина. Поэма. (Посв. Н. А. Некрасову)		Поэмы	стихи	Современник		1859	Т. 76. № 8	Отд. 1	С. 175-198		периодика
242			да	Oh, Weep for Those	П. К...в	Козлов П. А.	Еврейские мелодии. Лорда Байрона. Посвящено Б. К……ой. 1.	О, плачь за тех, которых тяжкий стон	Стихи, Еврейские мелодии	стихи	Библиотека для чтения		1859	Т. 153. № 2	Отд. 1	С. 1		периодика
243			да	I Saw Thee Weep	П. К...в	Козлов П. А.	Еврейские мелодии. Лорда Байрона. Посвящено Б. К……ой. 2.	Из глаз твоих слеза катилась	Стихи, Еврейские мелодии	стихи	Библиотека для чтения		1859	Т. 153. № 2	Отд. 1	С. 1-2		периодика
244			да	My Soul Is Dark	П. К...в	Козлов П. А.	Еврейские мелодии. Лорда Байрона. Посвящено Б. К……ой. 3.	Душа моя мрачна… О, пробеги рукой..	Стихи, Еврейские мелодии	стихи	Библиотека для чтения		1859	Т. 153. № 2	Отд. 1	С. 2		периодика
245			да	Jephtha's Daughter	П. К...в	Козлов П. А.	Еврейские мелодии. 4. Дочь Иеффая	Если смерть юной девы нужна…	Стихи, Еврейские мелодии	стихи	Библиотека для чтения		1859	Т. 154. № 3	Отд. 1	С. 139-140		периодика
246			да	Oh, Shatched away in Beauty's Bloom	П. К...в	Козлов П. А.	Еврейские мелодии. 5.	Во цвете юных лет, во цвете красоты	"Стихи; Еврейские мелодии"	стихи	Библиотека для чтения		1859	Т. 154. № 3	Отд. 1	С. 140		периодика
247			да	By the Rivers of Babylon 	П. К...в	Козлов П. А.	Еврейские мелодии. 1.	Мы у рек Вавилонских сидели в печали	Стихи, Еврейские мелодии	стихи	Библиотека для чтения		1859	Т. 156. № 7	Отд. 1	С. 3		периодика
248			да	Saul	П. К...в	Козлов П. А.	Еврейские мелодии. 2. Саул	Ты вызывать духов имеешь силу…	"Стихи; Еврейские мелодии"	стихи	Библиотека для чтения		1859	Т. 156. № 7	Отд. 1	С. 4		периодика
249			да	The Song of Saul before His Last Battle	П. К...в	Козлов П. А.	Еврейские мелодии. 3. Песнь Саула перед боем	О, вожди! Если выйдет на долю мою	"Стихи; Еврейские мелодии"	стихи	Библиотека для чтения		1859	Т. 156. № 7	Отд. 1	С. 5		периодика
250			да	A Spirit Pass'd Before Me	П. К...в	Козлов П. А.	Еврейские мелодии. 4.  Передо мной бесплотный дух предстал  (Из Иова)	Передо мной бесплотный дух предстал	Стихи, Еврейские мелодии	стихи	Библиотека для чтения		1859	Т. 156. № 7	Отд. 1	С. 6		периодика
252			да	The Destruction of Sennacherib	П. К...в	Козлов П. А.	Еврейские мелодии. 5. Поражение Сеннахериба	Ассирийцы на нас, словно волки, напали	Стихи, Еврейские мелодии	стихи	Библиотека для чтения		1859	Т. 156. № 7	Отд. 1	С. 6-7		периодика
251			да	On Jordan's Banks	П. К...в	Козлов П. А.	Еврейские мелодии. 6.	Близь священных тех мест, где течет Иордан…	Стихи, Еврейские мелодии	стихи	Библиотека для чтения		1859	Т. 156. № 7	Отд. 1	С. 7-8		периодика
253			да	All is Vanity, Saith the Preacher	П. К...в	Козлов П. А.	Еврейские мелодии. 7.	Со славой и мудростью взял я в удел	Стихи, Еврейские мелодии	стихи	Библиотека для чтения		1859	Т. 156. № 7	Отд. 1	С. 8		периодика
254			да	Farewell! If Ever Fondest Prayer	М. Лермонтов	Лермонтов М. Ю.	Прости (Из Байрона)	Прости! Коль могут к небесам…	Стихи	стихи	Отечественные записки		1859	Т. 127. № 11	Отд. 1	С. 253-254		периодика
				Oh, Weep for Those	Дмитрий Мин	Мин Д. Е.	Еврейская мелодия, из Байрона	Ах! Плачьте, как плакали мы на реках вавилонских	"Стихи; Еврейские мелодии"	стихи	Развлечение		1859	Т. 1. № 14		С. 157		периодика
256			да	I Saw Thee Weep	Д. М-х-л	Михайловский Д. Л.	Еврейские мелодии (Из Байрона). 3. I saw thee weep	Ты плакала, когда слеза…	Стихи, Еврейские мелодии	стихи	Современник		1859	Т. 73. № 2	Отд. 1	С. 471-472		периодика
257			да	She Walks in Beauty	Д. М-х-л	Михаловский Д. Л.	Еврейские мелодии (Из Байрона). 1. She Walks in Beauty	Она идет в красе своей…	Стихи, Еврейские мелодии	стихи	Современник		1859	Т. 73. № 2	Отд. 1	С. 470		периодика
258			да	If That High World	Д. М-х-л	Михаловский Д. Л.	Еврейские мелодии (Из Байрона). 2. If That High World	О, если там за небесами…	Стихи, Еврейские мелодии	стихи	Современник		1859	Т. 73. № 2	Отд. 1	С. 471		периодика
259			да	Stanzas to Augusta	Каролина Павлова	Павлова К. К.	К … (Из лорда Байрона)	Хоть гроза неприязни и горя	Стихи	стихи	Русский вестник		1859	Т. 20. Март. Кн. 2	Отд. 1	С. 347-348		периодика
				Child Harold's Pilgrimage	П. Попов	Попов П.	Прощание Чайльд-Гарольда (Из Лорда Байрона)	Прости, прости, мой милый край родной!..	Поэмы	стихи	Ярославские губернские ведомости. Часть неофициальная		1859	№ 39. 26 сентября		С. 290	Ярославль. 5 сентября 1859 года	периодика
				The Destruction of Sennacherib	П. Синцов	Синцов П. М.	Разрушение Сеннахериба (Из Байрона)	Идут Ассирьяне! Когорты их блещут…	"Стихи; Еврейские мелодии"	стихи	Вятские губернские ведомости. Часть неофициальная		1859	№ 9		С. 64-65		периодика
					С. Славутинский	Славутинский С. Т.	О боже! В купине неопалимой		"Стихи; Еврейские мелодии"	стихи	Русское слово		1859	№ 6	Отд. 1	С. 328		периодика
262			да	Thy Days are Done	С. Славутинский	Славутинский С. Т.	Мелодия Байрона	Ты кончил трудный путь земной	Стихи, Еврейские мелодии	стихи	Русское слово		1859	№ 6	Отд. 1	С. 327		периодика
263			да	The Destruction of Sennacherib	Гр. А. Толстой	Толстой А. К.	Из Байрона	Ассирияне шли, как на стадо волки	"Стихи; Еврейские мелодии"	стихи	Русская беседа		1859	Кн. 6	Отд. 1	С. 3-4		периодика
265			да	Mazeppa	И. Гогниев	Гогниев И. Е.	Мазепа, повесть лорда Байрона		Поэмы	стихи	Драматический сборник		1860	Кн. 4	Отд. 3	С. 1-32		периодика
266			да	Farewell! If Ever Fondest Prayer	Аполлон Григорьев	Григорьев А. А.	Из Байрона. 1.	Прощай! И если за других...	Стихи	стихи	Светоч		1860	№ 2	Отд. 1	С. 8		периодика
267			да	Bright Be the Place of Thy Soul	Аполлон Григорьев	Григорьев А. А.	Из Байрона. 2.	Души твоей будь обитель светла!...	Стихи, Еврейские мелодии	стихи	Светоч		1860	№ 2	Отд. 1	С. 9		периодика
268			да	Marino Faliero	Е. Зарин	Зарин Е. Ф.	Сцена из трагедии Байрона: Марино Фальеро (Сцена 2, I-го акта). В комнате Дожа		Драматургия	стихи	Библиотека для чтения		1860	Т. 158. № 2	Отд. 1	С. 1-14		периодика
269			да	Sardanapalus	Е. Зарин	Зарин Е. Ф.	Сарданапал. Трагедия. Славному Гете		Драматургия	стихи	Библиотека для чтения		1860	Т. 162. № 12	Отд. 2	С. 1-126	рецензия: СПб. ведомости. 1861. № 38. 16 февраля. С. 197-198.	периодика
				Child Harold's Pilgrimage	Л. Мей	Мей Л. А.	Из Чайльд Гарольда		Поэмы	стихи	Сын отечества		1860	№ 11		С. 281		периодика
271			да	Don Juan	Дмитрий Мин	Мин Д. Е.	Ave Maria! (Из Байронова Дон-Жуана)	Окончен пир. Затихло ликованье…	Поэмы	стихи	Развлечение		1860	Т. 3. № 2		С. 18		периодика
272			да	Darkness	Дмитрий Минаев	Минаев Д. Д.	Тьма (Байрона)	Я видел сон, но сном он будто не был	Стихи	стихи	Русский мир		1860	№ 75		С. 168-169		периодика
264			да	Child Harold's Pilgrimage	Мих. Михайлов	Михайлов М. Л.	Из Чайльд Гарольда	Прости, прости, мой край родной!..	Поэмы	стихи	Современник		1860	Т. 83. № 10	Отд. 1	С. 639-642		периодика
274			да	Stanzas to Augusta	К. Павлова	Павлова К.К.	К *** (Из Байрона)	Хоть гроза неприязни и горя...	Стихи	стихи	Эротические стихотворения русских поэтов		1860			С. 131-132		периодика
275			да	Stanzas Written on the Road between Florence and  Pisa	В. Попов	Попов В. П.	Из Байрона (Стансы, написанные по дороге между Флоренцией и Пизой)	Что имя громкое в веках?	Стихи	стихи	Русское слово		1860	№ 6	Отд. 1	С. 302		периодика
276			да	On Jordan's Banks	б.п.	[Аноним]	Еврейские мелодии. Лорда Байрона. 1. На тихих брегах Иордана	На тихих брегах Иордана…	"Стихи; Еврейские мелодии"	стихи	Развлечение		1861	Т. 6. № 13 (38)		С. 145-146		периодика
277			да	By the Rivers of Babylon 	б.п.	[Аноним]	Еврейские мелодии. Лорда Байрона. 2. У рек Вавилонских	У рек вавилонских мы, плача, сидели…	"Стихи; Еврейские мелодии"	стихи	Развлечение		1861	Т. 6. № 14 (39)		С. 157		периодика
278			да	Child Harold's Pilgrimage	Н. Берг	Берг Н. В.	"[Подражание фрагменту IV песни ""Чайльд-Гарольда""]"	Катись, глубокий, синий, бесконечный…	Поэмы	стихи	Наше время		1861	№ 26		С. 443		периодика
279			да		Н. Греков	Греков Н. П.	Из Байрона	О, если мне, порой, в прекрасном сновиденьи	Стихи	стихи	Век		1861	№ 9		С. 316		периодика
280			да	Prometheus	Ап. Григорьев	Григорьев А. А.	Прометей (Из Байрона) (А. П. Милюкову)	Титан! Бессмертными очами	Стихи	стихи	Светоч		1861	№ 2	Отд. 1	С. 65-66		периодика
281			да	Remind me not	Ап. Григорьев	Григорьев А. А.	Не вспоминай! Из Байрона	Не вспоминай мне, не вспоминай…	Стихи	стихи	Русский мир		1861	№ 72		С. 1206-1207		периодика
282			да	Ode to Venice	Аполлон Григорьев	Григорьев А. А.	Венеция. Отрывок из Байрона	Венеция! Венеция! В тот миг…	Стихи	стихи	Время		1861	Т. 1. № 1	Отд. 1	С. 408-409		периодика
283			?	The Two Foscari	Е. Зарин	Зарин Е. Ф.	Двое Фоскари. Трагедия лорда Байрона.		Драматургия	стихи	Библиотека для чтения		1861	Т. 168. № 11.	Отд. 2	С. 1-96		периодика
284			да	Maid of Athens, Ere We Part	Л. Мей	Мей Л. А.	Афинской девушке (Из Байрона)	Час разлуки бьет: прости	Стихи	стихи	Русское слово		1861	№ 5	Отд. 1	С. 34		периодика
285			да	She Walks in Beauty	Д. М. 	Минаев Д. Д.	Мелодия (Из Байрона)	Как ночь стоокая, алмазом звезд одета…	"Стихи; Еврейские мелодии"	стихи	Русский мир		1861	№ 3		С. 54-55		периодика
288			да	When We Two Parted	Н. Греков	Греков Н. П.	Из Байрона (А. М. Леонтьевой)	Когда безмолвные, в минуты расставанья…	Стихи	стихи	Библиотека для чтения		1862	Т. 170. № 3.		С. 188		периодика
289			да		Н. Греков	Греков Н. П.	Индейская песня. Из Байрона	С подушкой моей одинокой	Стихи	стихи	Библиотека для чтения		1862	Т. 173. № 10		С. 124		периодика
290			да	Child Harold's Pilgrimage	Аполлон Григорьев	Григорьев А. А.	Странствие Чайльд-Гарольда. Роман в стихах лорда Байрона		Поэмы	стихи	Время		1862	Т. 12. № 7	Отд. 1	С. 183-216	Рецензия: Поречников В. Провинциальные письма о нашей литературе // ОЗ. 1862. № 10. С. 243-255	периодика
291			да	She Walks in Beauty	В. Костомаров	Костомаров В. Д.	Еврейская мелодия Байрона	Она прошла. Лазурь очей…	"Стихи; Еврейские мелодии"	стихи	Светоч		1862	№ 4	Отд. 1	С. 180		периодика
292			да	Don Juan	Дмитрий Мин	Мин Д. Е.	Из Байронова Дон Хуана	Подмытый морем, дикий и пустой…	Поэмы	стихи	Зритель общественной жизни, литературы и спорта		1862	№ 32		С. 138-139		периодика
293			да	Oh, Weep for Those	М. Д.	Минаев Д. Д. (?)	Плен вавилонский (Из Байрона)	В стенах Вавилона, окрест чуждых вод…	"Стихи; Еврейские мелодии"	стихи	Русский мир		1862	№ 7		С. 172		периодика
294			да		Н. Гербель	Гербель Н. В.	Стансы (Из Байрона)	О, если бы вместо всех молний очей…	Стихи	стихи	Библиотека для чтения		1863	№ 10	Отд. 1	С. 56		периодика
295			да	Herod's Lament for Mariamne	Н. Гербель	Гербель Н. В.	Плач Ирода по Мариамне (Из Байрона)	О Мариамна! друг! то сердце, что решилось…	Стихи, Еврейские мелодии	стихи	Библиотека для чтения		1863	№ 12	Отд. 1	С. 34		периодика
				Hebrew Melodies	Н. Жандр	Жандр Н. П.	Еврейские мелодии (Из Байрона)		"Стихи; Еврейские мелодии"	стихи	Старые знакомые. Сборник статейв стихах и прозе		1863			С. ???		периодика
297			да	Oh, Weep for Those	Д. Минаев	Минаев Д. Д.	Еврейская мелодия (Из Байрона)	Ах, плачьте, рыдайте, бездомные дети Сиона…	Стихи, Еврейские мелодии	стихи	Русское слово		1863	№ 10	Отд. 1	С. 127		периодика
298			да	Manfred	Д. Д. Минаев	Минаев Д. Д.	Манфред. Драматическая поэма в 3 действиях, Байрона		Драматургия	стихи	Русское слово		1863	№ 4	Отд. 1	С. 1-58		периодика
299			да	Child Harold's Pilgrimage	Дмитрий Минаев	Минаев Д. Д.	Песня Чайльд-Гарольда (Из Байрона)	Прости! Утопает в дали голубой…	Поэмы	стихи	Русское слово		1863	№ 9	Отд. 1	С. 154-156		периодика
300			да	Beppo	Дмитрий Минаев	Минаев Д. Д.	Беппо. Венецианская повесть. Лорда Байрона	Известен всем, - не сомневаюсь в том...	Поэмы	стихи	Современник		1863	Т. 97. № 8	Отд. 1	С. 401-438		периодика
					В. Б.		Еврейские мелодии	Рыдайте о тех, кто у волн вавилонских	"Стихи; Еврейские мелодии"	стихи	Зритель общественной жизни, литературы и спорта		1863	№ 16				периодика
					В. Б.		Еврейские мелодии	Если я умереть, о отец мой, должна	"Стихи; Еврейские мелодии"	стихи	Зритель общественной жизни, литературы и спорта		1863	№ 20				периодика
					В. Б.		Еврейские мелодии	О краса, что в цвете лет и силы	"Стихи; Еврейские мелодии"	стихи	Зритель общественной жизни, литературы и спорта		1863	№ 20				периодика
					В. Б.		Еврейские мелодии. Видение Валтасара		"Стихи; Еврейские мелодии"	стихи	Зритель общественной жизни, литературы и спорта		1863	№ 15				периодика
						Зотов В. Р.		Ты жизнию меня	Стихи	стихи	Иллюстрированная газета		1864	Т. 14. № 48				периодика
						Зотов В. Р.	Еду я, мой друг, прощай		Стихи	стихи	Иллюстрированная газета		1864	Т. 14. № 48				периодика
303			да	On Jordan's Banks	Ф. Берг	Берг Ф. Н.	Еврейские мелодии (Из Байрона)	Этот берег святой, где священный течет Иордан…	"Стихи; Еврейские мелодии"	стихи	Модный магазин		1864	№ 6		С. 89		периодика
304			да	The Dream	П. Вейнберг	Вейнберг П. И.	Сон (Из Байрона)	Жизнь двойственна: наш сон свой мир имеет	Стихи	стихи	Русское слово		1864	№ 2	Отд. 1	С. 73-80		периодика
305			да	Darkness	П. Вейнберг	Вейнберг П. И.	Тьма (Из Байрона)	"Я видел сон; то был не полный сон "	Стихи	стихи	Русское слово		1864	№ 4	Отд. 1	С. 313-316		периодика
306			да	Song of Saul before His Last Battle	Н. Гербель	Гербель Н. В.	Песнь Саула перед последним боем (Из Байрона)	Когда, пораженный мечем иль стрелой…	"Стихи; Еврейские мелодии"	стихи	Модный магазин		1864	№ 1		С. 1		периодика
307			да	Jephtha's Daughter	Н. Гербель	Гербель Н. В.	Дочь Иеффая (Из Байрона)	О! если народ и Творец…	"Стихи; Еврейские мелодии"	стихи	Модный магазин		1864	№ 3		С. 33		периодика
308			да	Vision of Belshazzar	Н. Гербель	Гербель Н. В.	Еврейские мелодии (Из Байрона). 1. Видение Валтасара	Пирует он. Вокруг владыки…	"Стихи; Еврейские мелодии"	стихи	Современник		1864	Т. 100. № 1	Отд.1	С. 265-266		периодика
309			да	By the Rivers of Babylon 	Н. Гербель	Гербель Н. В.	Еврейские мелодии (Из Байрона). 2. У рек Вавилонских	У рек вавилонских мы, сидя, с тоской	Стихи, Еврейские мелодии	стихи	Современник		1864	Т. 100. № 1	Отд. 1	С. 267		периодика
310			да	Song of Saul before His Last Battle	Н. Гербель	Гербель Н. В.	Еврейские мелодии (Из Байрона). 3. Песнь Саула перед последним боем	Когда, пораженный мечем иль стрелой…	"Стихи; Еврейские мелодии"	стихи	Современник		1864	Т. 100. № 1	Отд. 1	С. 267-268		периодика
311			да	Herod's Lament for Mariamne	Н. Гербель	Гербель Н. В.	Еврейские мелодии (Из Байрона). 4. Плач Ирода по Мариамне	О Мариамна! друг! то сердце, что решилось…	"Стихи; Еврейские мелодии"	стихи	Современник		1864	Т. 100. № 1	Отд. 1	С. 268		периодика
312			да	Jephtha's Daughter	Н. Гербель	Гербель Н. В.	Еврейские мелодии (Из Байрона). 5. Дочь Иеффая	О! если народ и Творец	Стихи, Еврейские мелодии	стихи	Современник		1864	Т. 100. № 1	Отд. 1	С. 269		периодика
313			да	Were My Bosom as False	Н. Гербель	Гербель Н. В.	Еврейские мелодии (Из Байрона). 6. Будь я так порочен	Будь я так порочен, как ты говоришь с укоризной	Стихи, Еврейские мелодии	стихи	Современник		1864	Т. 100. № 1	Отд. 1	С. 269-270		периодика
314			да	The Destruction of Sennacherib	Н. Гербель	Гербель Н. В.	Еврейские мелодии (Из Байрона). 7. Поражение Сеннахерима	Как волки на стадо, враги набежали	Стихи, Еврейские мелодии	стихи	Современник		1864	Т. 100. № 1	Отд. 1	С. 270-271		периодика
315			да	A Spirit Pass'd Before Me	Н. Гербель	Гербель Н. В.	Еврейские мелодии (Из Байрона). 8. Мне призрак явился (Из Иова)	Мне призрак явился - и я без покрова	Стихи, Еврейские мелодии	стихи	Современник		1864	Т. 100. № 1	Отд. 1	С. 271		периодика
316			да	A Spirit Pass'd Before Me	Н. Гербель	Гербель Н. В.	Иов (Из Байрона)	Мне призрак явился - и я без покрова…	"Стихи; Еврейские мелодии"	стихи	Развлечение		1864	Т. 11. № 8		С. 113		периодика
317			да	Remind me not	Г. Гербель	Гербель Н.В.	Стансы (Из Байрона)	Мой друг, не приводи на память мне тех дней	Стихи	стихи	Эпоха		1864	№ 1-2	Отд. 1	С. 32		периодика
318			да	Child Harold's Pilgrimage	Дмитрий Минаев	Минаев Д. Д.	Чайльд Гарольд. Роман в 4-х песнях, Байрона. К Янте. Песня первая		Поэмы	стихи	Русское слово		1864	№ 1	Отд. 1	С. 79-124		периодика
321			да	Child Harold's Pilgrimage	Д. Минаев	Минаев Д. Д.	Чайльд Гарольд. Роман в 4-х песнях, Байрона. Песнь четвертая и последняя		Поэмы	стихи	Русское слово		1864	№ 10	Отд. 1	С. 213-286		периодика
322			да	Don Juan	Д. Минаев	Минаев Д. Д.	Письмо Юлии к Дон-Жуану (Из Байрона)	Вы едете. Теперь все решено…	Поэмы	стихи	Русское слово		1864	№ 11	Отд. 1	С. 299-300		периодика
323			да	Child Harold's Pilgrimage	Дмитрий Минаев	Минаев Д. Д.	Из Байрона	Замок, нахмурясь, над Рейном склоняется…	Поэмы	стихи	Модный магазин		1864	№ 19		С. 289		периодика
				Child Harold's Pilgrimage	Д. Минаев	Минаев Д. Д.	Инесе (Из Чайльд Гарольда) 	Не улыбайся мне! Тебе бы, видит Бог…	Поэмы	стихи	Русь		1864	№ 2. 8 января		С. 27		периодика
				Child Harold's Pilgrimage	Дмитрий Минаев	Минаев Д. Д.	На корабле (Из 2-й песни Чайльд-Гарольда, Байрона)	Кто в море был, тот, верно, знает…	Поэмы	стихи	Русь		1864	№ 10. 7 марта		С. 140		периодика
319			да	Child Harold's Pilgrimage	Дмитрий Минаев	Минаев Д. Д.	Чайльд Гарольд. Роман в 4-х песнях, Байрона. Песнь вторая		Поэмы	стихи	Русское слово		1864	№ 3	Отд. 1	С. 1-44,		периодика
320			да	Child Harold's Pilgrimage	Дмитрий Минаев	Минаев Д. Д.	Чайльд Гарольд. Роман в 4-х песнях, Байрона. Песнь третья		Поэмы	стихи	Русское слово		1864	№ 5	Отд. 1	С. 57-108	"Рец.:ОЗ. 1864. № 9. С. 301-326; ОЗ. 1865. Кн. 2. С. 305-308"	периодика
325			да	Saul	Д. Михаловский	Михаловский Д. Л.	Саул	Чар твоих могучих сила…	"Стихи; Еврейские мелодии"	стихи	Модный магазин		1864	№ 7		С. 103		периодика
				Child Harold's Pilgrimage	Л. Мей	Мей Л. А.	Прощание Чайльд-Гарольда		Поэмы	стихи	Модный магазин		1865	№ 8				периодика
327			да	Don Juan	Дмитрий Минаев	Минаев Д. Д.	Дон Жуан. Роман в стихах. Байрона. Песня первая		Поэмы	стихи	Современник		1865	Т. 106. № 1	Отд. 1	С. 5-72	рец.:  Эпоха. 1865. № 2. С. 21-38.	периодика
328			да	Don Juan	Дмитрий Минаев	Минаев Д. Д.	Дон Жуан. Роман в стихах. Байрона. Песня вторая		Поэмы	стихи	Современник		1865	Т. 106. № 2	Отд. 1	С. 447-512		периодика
329			да	Don Juan	Дмитрий Минаев	Минаев Д. Д.	Дон Жуан. Роман в стихах. Байрона. Песня третья		Поэмы	стихи	Современник		1865	Т. 107. № 3	Отд. 1	С. 167-208		периодика
330			да	Don Juan	Дмитрий Минаев	Минаев Д. Д.	Дон Жуан. Роман в стихах. Байрона. Песня четвертая		Поэмы	стихи	Современник		1865	Т. 107. № 4.	Отд. 1	С. 245-274		периодика
331			да	Don Juan	Дмитрий Минаев	Минаев Д. Д.	Дон Жуан. Роман в стихах. Байрона. Песня пятая		Поэмы	стихи	Современник		1865	Т. 108. № 5	Отд. 1	С. 163-203		периодика
332				Don Juan	Дмитрий Минаев	Минаев Д. Д.	Дон Жуан. Роман в стихах. Байрона. Песня шестая		Поэмы	стихи	Современник		1865	Т. 109. № 7	Отд. 1	С. 207-237		периодика
333			да	Don Juan	Дмитрий Минаев	Минаев Д. Д.	Дон Жуан. Роман в стихах. Байрона. Песня седьмая		Поэмы	стихи	Современник		1865	Т. 109. № 8.	Отд. 1	С. 453-476		периодика
334				Don Juan	Дмитрий Минаев	Минаев Д. Д.	Дон Жуан. Роман в стихах. Байрона. Песня восьмая		Поэмы	стихи	Современник		1865	Т. 110. № 10	Отд. 1	С. 433-468		периодика
338			да	Don Juan	Дмитрий Минаев	Минаев Д. Д.	Дон Жуан. Роман в стихах		Поэмы	стихи	Современник		1866	Т. 112. № 1	Отд. 1	С. 259-274		периодика
				Child Harold's Pilgrimage	Д. Михаловский	Михаловский Д. Л.	Гладиатор		Поэмы	стихи	Модный магазин		1866	№ 6				периодика
					кн. Н. Костров	Костров Н.	Будь навсегда блестящ		Стихи	стихи	Иллюстрированная газета		1866	Т. 17		С. 287		периодика
					С. М.		Тьма		Стихи	стихи	Утро		1866					периодика
				Marino Faliero	Е. Зарин	Зарин Е. Ф.	"Сцена из трагедии Байрона ""Марино Фальеро"""		Драматургия	стихи	Литературная библиотека		1867	Т. 11. Кн. 1. Ноябрь		С. 3-7		периодика
340			да	Cain	Дмитрий Минаев	Минаев Д. Д.	"Сцена из ""Каина"", Байрона. В беспредельном пространстве"		Драматургия	стихи	Дело		1867	№ 12		С. 201-212		периодика
					ъ ъ		Надпись на могиле ньюфаундлендской собаки	Когда иной гордец	Стихи	стихи	Развлечение		1867	№ 15				периодика
341			да	Marino Faliero	Е. Зарин	Зарин Е. Ф.	Марино Фальеро. Историческая трагедия Байрона. Акт 1-й.		Драматургия	стихи	Литературная  библиотека		1868	№ 2. Февраль		С. 161-189		периодика
342			да	Cain	Д. Минаев	Минаев Д. Д.	"Сцена из ""Каина"". Байрона (Действие I, сцена 1)"		Драматургия	стихи	Дело		1868	№ 6		С. 240-256		периодика
343			да	Child Harold's Pilgrimage	Д. Михаловский	Михаловский Д. Л.	На развалинах Колизея (Из Чайльд Гарольда, Байрона) 	О, Время, ты, что красоты венец	Поэмы	стихи	Отечественные записки		1868	Т. 177. № 3		С. 147-150		периодика
344			да	Child Harold's Pilgrimage	Д. Л. Михаловский	Михаловский Д. Л.	Океан (Из Чайльд-Гарольда, Байрона)	Волнуйся же, глубокий океан!	Поэмы	стихи	Отечественные записки		1868	Т. 177. № 4		С. 529-530		периодика
OT1			да	The Siege of Corinth		Каченовский М. Т.	Осада Коринфа		Поэмы	проза	Байрон Дж. Г. Выбор из сочинений Лорда Бейрона, переведенных с французского. Издал М. Каченовский	М.	1821			С. 3-55		отд_изд
OT1			да	The Death of Calmar and Orla 		Каченовский М. Т.	Калмар и Орла (Подражание Оссиану)		Поэмы	проза	Байрон Дж. Г. Выбор из сочинений Лорда Бейрона, переведенных с французского. Издал М. Каченовский	М.	1821			С. 56-68		отд_изд
OT1			да	Mazeppa		Каченовский М. Т.	Мазепа		Поэмы	проза	Байрон Дж. Г. Выбор из сочинений Лорда Бейрона, переведенных с французского. Издал М. Каченовский	М.	1821			С. 69-106		отд_изд
OT1			да	The Giaour		Каченовский М. Т.	Джяур (Отрывки из одной Турецкой повести)		Поэмы	проза	Байрон Дж. Г. Выбор из сочинений Лорда Бейрона, переведенных с французского. Издал М. Каченовский	М.	1821			С. 107-176		отд_изд
OT1			да	The Bride of Abydos		Каченовский М. Т.	Абидосская невеста. Турецкая повесть		Поэмы	проза	Байрон Дж. Г. Выбор из сочинений Лорда Бейрона, переведенных с французского. Издал М. Каченовский	М.	1821			С. 177-255	"Рецензия: СО. 1822. Ч. 79. № 28. С. 83; № 29. С. 97-118; Сор. 1822. № 9. С. 209-221; Благ. 1822. Ч. 17. № 5. С. 204; Моск. Вестник. 1828. Ч. 7 (в рец. на перевод ""Паризины"")"	отд_изд
OT2			да	The Giaour	Н.Р.	[Аноним]	Джяур, отрывки турецкой повести. Из сочинений Лорда Бейрона. В стихах. Перевел Н. Р. 		Поэмы	стихи	Джяур, отрывки турецкой повести. Из сочинений Лорда Бейрона. В стихах. Перевел Н. Р. 	М.	1822				Рецензия: СО. 1823. Ч. 83. № 6. С. 279	отд_изд
OT3			да	The Prisoner of Chillon		Жуковский В. А.	Шильонский узник, поэма лорда Бейрона. Пер. с англ. В.Ж.		Поэмы	стихи	Шильонский узник, поэма лорда Бейрона. Пер. с англ. В.Ж.	СПб.	1822				"Рецензии: СО. 1822. Ч. 29. № 28. С. 83, № 29. С. 97-118; СО. 1823. Ч. 83. № 1. С. 11, № 6. С. 279-280; Соревнователь. 1822. Ч. 19. № 2. С. 209-221"	отд_изд
				The Bride of Abydos		Козлов И. И.	Невеста Абидосская. Турецкая повесть лорда Байрона / Перевел с англ. Иван Козлов		Поэмы	стихи	Невеста Абидосская. Турецкая повесть лорда Байрона. Перевел с англ. Иван Козлов	СПб.	1826				"Рецензия:  МТ. 1826. Т. 12 № 23. С. 182-196; СО. 1827. Ч. 112. С. 380; МВ. 1828. Ч. 7. С. 472"	отд_изд
OT6			да	Parisina		Вердеревский В.	Паризина. Историческая повесть Лорда Байрона. Вольный перевод В. Вердеревского		Поэмы	стихи	Паризина. Историческая повесть Лорда Байрона. Вольный перевод В. Вердеревского	СПб.	1827				"Рецензии:  ДЖ. 1829. Ч. 25. № 2. С. 30-32; № 3. С. 44-47;  МВ. 1828. Ч. 7. № 4. С. 470-477; МТ. 1828. Ч. 19. № 2. С. 247-250; СПб.зритель. 1828. № 1. С. 135-138; Спчела. 1828. № 25; СО. 1828. Ч. 118. № 8. С. 320-334."	отд_изд
OT5			да	The Corsair		Олин В. Н.	Корсер. Романтическая трагедия в 3-х действиях, с хором, романсом и двумя песнями, турецкою и аравийскою, заимствованная из английской поэмы Лорда Байрона под названием: The Corsair. Сочинение В. Н. Олина		Поэмы	стихи и проза	Корсер. Романтическая трагедия в 3-х действиях, с хором, романсом и двумя песнями, турецкою и аравийскою, заимствованная из английской поэмы Лорда Байрона под названием: The Corsair. Сочинение В. Н. Олина	СПб.	1827				"Рецензии: МТ. 1828. Ч. 20. № 6. С. 224-233; СПчела. 1828. № 27-29"	отд_изд
				Manfred		Вронченко М. П.	Манфред, драматическая поэма в трех действиях. Сочинение Лорда Байрона. Перевел с английского М.В. 		Драматургия	стихи	Манфред, драматическая поэма в трех действиях. Сочинение Лорда Байрона. Перевел с английского М.В. 	СПб.	1828				"Рецензии: МТ. 1828. Ч. 23. № 19. С. 338-347; № 20 С. 452-466; МВ. 1828. Ч. 10.  № 13. Критика. Русские книги. С. 56-69 ; СО. 1828. Ч. 119. № 11. С. 308-310; Сев. Пчела. 1828. № 89-90"	отд_изд
OT9			да	Parisina		Карцов Н.	Паризина. Историческая повесть Лорда Байрона. Вольный перевод Н. Карцова		Поэмы	стихи	Паризина. Историческая повесть Лорда Байрона. Вольный перевод Н. Карцова	М.	1829				"Рецензия: МТ. 1829. № 2. С. 236; СЦ на 1830 год. С. 78-79"	отд_изд
OT8			да	Lara		Носков А.	Лара. Повесть в стихах, сочинение Лорда Байрона / Пер. Александра Носкова		Поэмы	стихи	"Лара. Повесть в стихах, сочинение Лорда Байрона, перев. Александра Носкова; "	М.	1829				"Рецензия: МТ. 1829.Ч. 28. № 14. С. 221-222; СЦ на 1830 год. С. 78-79"	отд_изд
				Werner		Зотов Р. И.	Разбойник Богемских лесов…		Драматургия			СПб.,	1829				"Рец.: МТ. 1830. Ч. 32. № 8. С. 504-506; ЛПРИ. 1831. № 34."	отд_изд
				The Bride of Abydos		Козлов И. И.	Невеста Абидосская. Турецкая повесть лорда Байрона / Перевел с англ. Иван Козлов		Поэма	стихи	Невеста Абидосская. Турецкая повесть лорда Байрона. Перевел с англ. Иван Козлов	СПб.	1831					отд_изд
OT11			да	Mazeppa		[Аноним]	Мазепа. Поэма лорда Байрона.		Поэмы	стихи	Мазепа. Поэма лорда Байрона.	М.,	1841				"Рецензии: ОЗ. 1841. Т. 19. Библ. Хроника. С. 42-43; Совр. 1841. Т. 25. С. 43-44; ЛПРИ. 1838. № 20. С. 390-392."	отд_изд
OT12			да	Don Juan		Жандр Н. П.	Дон-Жуан. Поэма лорда Байрона. Песнь 1-я / Перев. Н. Жандра		Поэмы	стихи	Дон-Жуан. Поэма лорда Байрона. Перев. Н. Жандра	СПб.	1846				"Рецензии: ОЗ. 1847. Т. 50. С. 95; СО. 1847. Кн. 2. С. 35; БдлЧт. 1847. Т. 80. С. 35-41; Фин.вестник. 1847. Т. 13. № 1. С. 40-41; Совр. 1847. № 2."	отд_изд
OT13			да	Don Juan		Любич-Романович В. И. 	Дон-Жуан. Поэма лорда Байрона. Вольный перевод В. Любич-Романовича: В 2 ч.		Поэмы	стихи	Дон-Жуан. Поэма лорда Байрона. Вольный перевод В. Любич-Романовича: В 2 ч.	СПб.	1847				"Рецензии: ОЗ. 1847. Т. 52. № 6. С. 130-131; СО. 1847. Кн.6;  Кн. 7. С. 13-25; СО. 1847. Кн. 8. С. 1-18; Лит. Газ. 1847. № 31. С. 488-491, № 35. С. 555-560; Совр. 1847. Т. 3. С. 137-141; Библ. Для чт. 1847. Т. 82. С. 25-42; Московский городской листок, 1847, № 117, стр. 468—479; СПчела. 1847. № 120; Рус. инвалид. 1847. № 158. 18 июля. С. 631"	отд_изд
OT14			да	The Bride of Abydos		Политковская М.	Абидосская невеста, турецкая повесть, переделана с английской поэмы лорда Байрона М. Политковской.		Поэмы	стихи	Абидосская невеста, турецкая повесть, переделана с английской поэмы лорда Байрона М. Политковской.	М.,	1859				Рецензия: Развлечение. 1859. № 16. С. 191-192	отд_изд
OT15			да	Hebrew Melodies		Козлов П. А.	"Израильтянка (""Она идет, полна красой..."")"		"Стихи; Еврейские мелодии"	стихи	Еврейские мелодии лорда Байрона	СПб.	1860			С. 1-2		отд_изд
OT15			да	Hebrew Melodies		Козлов П. А.	"Лира Давида (""На дивной лире царь-певец играл..."")"		"Стихи; Еврейские мелодии"	стихи	Еврейские мелодии лорда Байрона	СПб.	1860			С. 3-4		отд_изд
OT15			да	Hebrew Melodies		Козлов П. А.	"Вечность (""Когда б тот мир высокий, неземной..."")"		"Стихи; Еврейские мелодии"	стихи	Еврейские мелодии лорда Байрона	СПб.	1860			С. 5-6		отд_изд
OT15			да	Hebrew Melodies		Козлов П. А.	"Газель (""Газель в горах страны святой..."")"		"Стихи; Еврейские мелодии"	стихи	Еврейские мелодии лорда Байрона	СПб.	1860			С. 7-8		отд_изд
OT15			да	Hebrew Melodies		Козлов П. А.	"О, плачь за тех! (""О, плачь за тех, которых тяжкий стон..."")"		"Стихи; Еврейские мелодии"	стихи	Еврейские мелодии лорда Байрона	СПб.	1860			С. 9-10		отд_изд
OT15			да	Hebrew Melodies		Козлов П. А.	"Берега Иордана (""Близ священных тех мест, где течет Иордан..."")"		Стихи, Еврейские мелодии	стихи	Еврейские мелодии лорда Байрона	СПб.	1860			С. 11-12		отд_изд
OT15			да	Hebrew Melodies		Козлов П. А.	"Дочь Иеффая (""Если смерть юной дувы нужна…."")"		Стихи, Еврейские мелодии	стихи	Еврейские мелодии лорда Байрона	СПб.	1860			С. 13-14		отд_изд
OT15			да	Hebrew Melodies		Козлов П. А.	"Воспоминанье (""Во цвете юных лет, во цвете красоты..."")"		"Стихи; Еврейские мелодии"	стихи	Еврейские мелодии лорда Байрона	СПб.	1860			С. 15-16		отд_изд
OT15			да	Hebrew Melodies		Козлов П. А.	"Душа моя мрачна! (""Душа моя мрачна… О, пробеги рукой…."") "		Стихи, Еврейские мелодии	стихи	Еврейские мелодии лорда Байрона	СПб.	1860			С. 17-18		отд_изд
OT15			да	Hebrew Melodies		Козлов П. А.	"Слеза и улыбка (""Из глаз твоих слеза катилась..."")"		"Стихи; Еврейские мелодии"	стихи	Еврейские мелодии лорда Байрона	СПб.	1860			С. 19-20		отд_изд
OT15			да	Hebrew Melodies		Козлов П. А.	"Смерть героя (""Освобождая край родной..."")"		"Стихи; Еврейские мелодии"	стихи	Еврейские мелодии лорда Байрона	СПб.	1860			С. 21-22		отд_изд
OT15			да	Hebrew Melodies		Козлов П. А.	"Песнь Саула перед боем (""О, вожди! Если выйдет на долю мою…"")"		Стихи, Еврейские мелодии	стихи	Еврейские мелодии лорда Байрона	СПб.	1860			С. 23-24		отд_изд
OT15			да	Hebrew Melodies		Козлов П. А.	"Саул (""Ты вызывать духов имеешь силу…"")"		Стихи, Еврейские мелодии	стихи	Еврейские мелодии лорда Байрона	СПб.	1860			С. 25-26		отд_изд
OT15			да	Hebrew Melodies		Козлов П. А.	Со славой и мудростью взял я в удел...		Стихи, Еврейские мелодии	стихи	Еврейские мелодии лорда Байрона	СПб.	1860			С. 27-28		отд_изд
OT15			да	Hebrew Melodies		Козлов П. А.	"Душа (""Когда душа холодный прах оставит..."")"		"Стихи; Еврейские мелодии"	стихи	Еврейские мелодии лорда Байрона	СПб.	1860			С. 29-30		отд_изд
OT15			да	Hebrew Melodies		Козлов П. А.	"Пир Вальтасара (""На троне царь сидит..."")"		"Стихи; Еврейские мелодии"	стихи	Еврейские мелодии лорда Байрона	СПб.	1860			С. 31-33		отд_изд
OT15			да	Hebrew Melodies		Козлов П. А.	"Звезда (""Звезда печальная, звезда лишенных сна..."")"		"Стихи; Еврейские мелодии"	стихи	Еврейские мелодии лорда Байрона	СПб.	1860			С. 35		отд_изд
OT15			да	Hebrew Melodies		Козлов П. А.	"Еврей (""Если грудь так порочна была бы моя..."")"		"Стихи; Еврейские мелодии"	стихи	Еврейские мелодии лорда Байрона	СПб.	1860			С. 37-38		отд_изд
OT15			да	Hebrew Melodies		Козлов П. А.	"Плач Ирода (""О, Мариамна! От мученья!"")"		"Стихи; Еврейские мелодии"	стихи	Еврейские мелодии лорда Байрона	СПб.	1860			С. 39-40		отд_изд
OT15			да	Hebrew Melodies		Козлов П. А.	"Последний день Солима (""В безотрадной тоске и в печаль погружен..."")"		"Стихи; Еврейские мелодии"	стихи	Еврейские мелодии лорда Байрона	СПб.	1860			С. 41-42		отд_изд
OT15			да	Hebrew Melodies		Козлов П. А.	"Изгнанье (""Мы у рек Вавилонских сидели в печали..."")"		Стихи, Еврейские мелодии	стихи	Еврейские мелодии лорда Байрона	СПб.	1860			С. 43-44		отд_изд
OT15			да	Hebrew Melodies		Козлов П. А.	"Поражение Сеннахериба (""Ассирийцы, на нас, словно волки, напали…"")"		Стихи, Еврейские мелодии	стихи	Еврейские мелодии лорда Байрона	СПб.	1860			С. 45-47		отд_изд
OT15			да	Hebrew Melodies		Козлов П. А.	"Виденье Иова (""Передо мной бесплотный дух предстал..."")"		Стихи, Еврейские мелодии	стихи	Еврейские мелодии	СПб.	1860			С. 49-50	Рец.: Светоч. 1860. Кн. 3. С. 91-94.	отд_изд
OT16			да	The Giaour		Мишель Е.	Гяур Байрона. Перевел Евгений Мишель		Поэмы	проза	Гяур Байрона. Перевел Евгений Мишель	СПб.	1862					отд_изд
OT17			да	Don Juan		Маркевич Н. А.	Дон-Жуан. Соч. лорда Байрона. Гл. первая. Пер. Н. А. Маркевича		Поэмы	стихи	Дон-Жуан. Соч. лорда Байрона. Гл. первая. Пер. Н. А. Маркевича	Лейпциг	1862					отд_изд
OT21			да	Don Juan		Минаев Д. Д.	Дон-Жуан. Роман в стихах Байрона. Перев. Д. Минаева		Поэмы	стихи	Дон-Жуан. Роман в стихах Байрона. Перев. Д. Минаева	СПб.	1866					отд_изд